{
  "ΠΡΑΞΑΓΟΡΑ": "PRAXAGORA",
  "ΠΡ.": "PRAXAGORA",
  "ΓΥΝΗ Α'": "PREMIÈRE CORYPHÉE",
  "ΓΥ. Α'": "PREMIÈRE CORYPHÉE",
  "ΓΥΝΗ Β'": "['LA VOISINE', 'DEUXIÈME CORYPHÉE']",
  "ΓΥ. Β'": "['LA VOISINE', 'DEUXIÈME CORYPHÉE']",
  "ΓΥΝΗ Γ'": "DEUXIÈME CORYPHÉE",
  "ΠΑΣΑΙ": "",
  "ΧΡΕΜΗΣ": "['LA VOISINE', 'CHRÉMÈS', 'PREMIER CITOYEN']",
  "ΧΡ.": "['LA VOISINE', 'CHRÉMÈS', 'PREMIER CITOYEN]",
  "ΧΟΡΟΣ": "LA CORYPHÉE",
  "ΒΛΕΠΥΡΟΣ": "BLEPYROS",
  "ΒΛ.": "BLEPYROS",
  "ΑΝΗΡ": "['UN PREMIER CITOYEN', 'LE CITOYEN', 'DEUXIÈME CITOYEN']",
  "ΑΝ.": "['UN PREMIER CITOYEN', 'LE CITOYEN', 'DEUXIÈME CITOYEN']",
  "ΧΟ.": "['LE CHŒUR', 'LA CORYPHÉE', 'UNE CORYPHÉE']",
  "ΒΛΕΠΥΡΟΣ καὶ ΧΡΕΜΗΣ": "BLEPYROS",
  "ΚΗΡΥΞ": "UNE FEMME HÉRAUT",
  "ΓΡΑΥΣ Α'": "UNE PREMIÈRE VIEILLE",
  "ΓΡ. Α'": "LA PREMIÈRE VIEILLE",
  "ΝΕΑΝΙΣ": "UNE JEUNE FILLE",
  "ΝΕ.": "LA JEUNE FILLE",
  "ΝΕΑΝΙΑΣ": "UN JEUNE HOMME",
  "Ν.": "LE JEUNE HOMME",
  "ΓΡΑΥΣ Β'": "UNE SECONDE VIEILLE",
  "ΓΡ. Β'": "LA SECONDE VIEILLE",
  "ΓΡΑΥΣ Γ'": "UNE TROISIÈME VIEILLE",
  "ΓΡ. Γ'": "LA TROISIÈME VIEILLE",
  "ΘΕΡΑΠΑΙΝΑ": "UNE SERVANTE DE PRAXAGORA",
  "ΘΕ.": "LA SERVANTE"
}