{
  "ΚΑΡΙΩΝ": "Carion.",
  "ΚΑ.": "Carion.",
  "ΧΡΕΜΥΛΟΣ": "Chrém.",
  "ΧΡ.": "Chrém.",
  "ΠΛΟΥΤΟΣ": "Plutus.",
  "ΠΛ.": "Plutus.",
  "ΧΟΡΟΣ": "LE CHŒUR.",
  "ΧΟ.": "LE CHŒUR.",
  "ΒΛΕΨΙΔΗΜΟΣ": "BLEPSIDÈME.",
  "ΒΛ.": "BLEPSIDÈME.",
  "ΠΕΝΙΑ": "LA PAUVRETÉ.",
  "ΠΕ.": "LA PAUVRETÉ.",
  "ΓΥΝΗ": "LA FEMME",
  "ΓΥ.": "LA FEMME",
  "ΣΥΚΟΦΑΝΤΗΣ": "LE DÉLATEUR",
  "ΣΥ.": "LE DÉLATEUR",
  "ΔΙΚΑΙΟΣ": "L'HOMME DE BIEN",
  "ΔΙ.": "L'HOMME DE BIEN",
  "ΓΡΑΥΣ": "LA VIEILLE",
  "ΓΡ.": "LA VIEILLE",
  "ΝΕΑΝΙΑΣ": "LE JEUNE HOMME",
  "ΝΕ.": "LE JEUNE HOMME",
  "ΕΡΜΗΣ": "MERCURE",
  "ΕΡ.": "MERCURE",
  "ΙΕΡΕΥΣ": "LE PRÊTRE",
  "ΙΕ.": "LE PRÊTRE"
}