{
  "ΚΑΡΙΩΝ": "Carion",
  "ΚΑ.": "Carion",
  "ΧΡΕΜΥΛΟΣ": "Chremylus",
  "ΧΡ.": "Chremylus",
  "ΠΛΟΥΤΟΣ": "Plutus",
  "ΠΛ.": "Plutus",
  "ΧΟΡΟΣ": "Chorus",
  "ΧΟ.": "Chorus",
  "ΒΛΕΨΙΔΗΜΟΣ": "Blepsidemus",
  "ΒΛ.": "Blepsidemus",
  "ΠΕΝΙΑ": "Paupertas",
  "ΠΕ.": "Paupertas",
  "ΓΥΝΗ": "LA FEMME",
  "ΓΥ.": "LA FEMME",
  "ΣΥΚΟΦΑΝΤΗΣ": "LE DÉLATEUR",
  "ΣΥ.": "LE DÉLATEUR",
  "ΔΙΚΑΙΟΣ": "L'HOMME DE BIEN",
  "ΔΙ.": "L'HOMME DE BIEN",
  "ΓΡΑΥΣ": "LA VIEILLE",
  "ΓΡ.": "LA VIEILLE",
  "ΝΕΑΝΙΑΣ": "LE JEUNE HOMME",
  "ΝΕ.": "LE JEUNE HOMME",
  "ΕΡΜΗΣ": "MERCURE",
  "ΕΡ.": "MERCURE",
  "ΙΕΡΕΥΣ": "LE PRÊTRE",
  "ΙΕ.": "LE PRÊTRE"
}