{
    "Ploutos_Arund": [
        [
            1,
            "Vert",
            "Carion",
            " Quam molesta res, o Iupiter atque dii, <br> servum fieri mente capti domini. <br> Si enim\n                  que optima sunt servus dixerit, <br> visum fuerit autem non facere hec ipsi possessori, <br>\n                  participare necessarium est ipsum servum malis.  <br> Corpori  enim non sinit dominum <br>\n                  dominari ipsa fortuna , sed ipsum emptorem.  <br>Et hec quidem sunt haec .\n                  Ipsi obliquario ,  <br>qui responsa canit\n                  tripode ex aurato,  <br>culpam iustam incusabo hanc: quia,  <br>medicus existens et vates,\n                  ut dicunt, sapiens, <br> cogitabundum dimisit dominum,  <br>qui sequitur a tergo hominem\n                  cecum, <br> contrarium faciens quam deceat ipsum facere. <br> Etenim videntes cecos\n                  precedimus, <br> hic autem sequitur et me quoque ad hoc cogit  <br> et ad hec \n                  respondentem  prorsus gry, id est nihil. <br> Ego quidem non decet\n                  ut taceam, <br> nisi dixeris quare huic ceco sequeris tandem, <br> o domine; et si tibi\n                  prebuero molestiam:  <br>non enim me verberabis sertum ferentem. "
        ],
        [
            2,
            "Vert",
            "Chremylus",
            " Per Iovem, sed auferens ipsum sertum, si aliquo turbaveris , <br> ut\n                  magis doleas. "
        ],
        [
            3,
            "Vert",
            "Carion",
            " Nuge, non enim cessabo  <br>priusquam dixeris mihi quis tandem est hic. <br> Benivolus enim\n                  existens tibi, te interrogo valde vehementer. "
        ],
        [
            4,
            "Vert",
            "Chremylus",
            " Sed non tibi occultabo: meorum enim servorum <br> fidelissimum existimo te et\n                  secretissimum. <br> Ego, pius et iustus existens vir, <br> male degebam et pauper eram. "
        ],
        [
            5,
            "Vert",
            "Carion",
            " Scio. "
        ],
        [
            6,
            "Vert",
            "Chremylus",
            " Alii autem ditescebant, sacrilegi, rethores, <br> et sycophante et maligni. "
        ],
        [
            7,
            "Vert",
            "Carion",
            " Credo .\n               "
        ],
        [
            8,
            "Vert",
            "Chremylus",
            " Interrogaturus igitur ivi ad deum. \n                  <br>\n\n\n<br>\n                  Ipsam meam quidem mei ipsius\n                      erumnosi  ferme <br> iam puto exsagittatam vitam, <br> ipsum autem filium, qui existens solus\n                  mihi contigit, <br> consulturus  si  oporteat esse, mutantem ipsos mores, <br> esse panurgon, id est omnia facientem iniustum,\n                  sani quidem nihil, <br> velut huic vite ipsum puto conducere. "
        ],
        [
            9,
            "Vert",
            "Carion",
            " Quid postea dixit ex coronis? "
        ],
        [
            10,
            "Vert",
            "Chremylus",
            " Audi. Manifeste enim deus dixit mihi hoc quidem: <br> cui obviavero primum exiens, <br>\n                  iussit hunc non dimittere me amplius, <br> persuadere autem mihi ipsi concomitari usque\n                  ad domum. "
        ],
        [
            11,
            "Vert",
            "Carion",
            " Et cui obviasti quidem primum? "
        ],
        [
            12,
            "Vert",
            "Chremylus",
            " Huic. "
        ],
        [
            13,
            "Vert",
            "Carion",
            " Itaque non intelligis opinionem ipsius dei <br> dicentem, o stultissime, tibi\n                  manifestissima <br> exercitare ipsum filium provinciales mores? "
        ],
        [
            14,
            "Vert",
            "Chremylus",
            " Ex eo hoc iudicas? "
        ],
        [
            15,
            "Vert",
            "Carion",
            " Manifestum est et ceco <br> cognoscere videtur hoc, quod valde est utile <br> hoc non\n                  quidem exercitare integrum  in hoc presenti tempore. "
        ],
        [
            16,
            "Vert",
            "Chremylus",
            " Non est ita quod oraculum ad hoc repat, <br> sed in aliud aliquid maius. "
        ],
        [
            17,
            "Magenta",
            [
                [
                    "Carion",
                    "Nisi autem mihi dixeris  <br>quis demum est hic et cuius gratia <br> et cuius indigens venit\n                  post nos hic,  <br>intelligeremus utique oraculum nostrum quid intendat. <br> Age iam, tu\n                  primum, te ipsum quis es, dic, <br> aut ab his facio. "
                ],
                [
                    "Chremylus",
                    " Dicere oportet celeriter valde. "
                ]
            ]
        ],
        [
            18,
            "Vert",
            "Plutus",
            " Ego quidem flere dico vobis. "
        ],
        [
            19,
            "Gris",
            "",
            ""
        ],
        [
            20,
            "Vert",
            "Chremylus",
            " Tibi hoc dicit, non mihi: <br> imperite enim ipsum et moleste interrogasti. <br> Sed quid\n                  gaudes viro pio moribus, <br> mihi dic. "
        ],
        [
            21,
            "Vert",
            "Plutus",
            " Plorare ego quidem tibi dico. "
        ],
        [
            22,
            "Bleu",
            "Carion",
            " Accipis hunc virum et augurium ipsius dei. <br> Non enim, per Cererem, gaudebis\n                  amplius: <br> nisi dixeris enim, te deperdam malum male. "
        ],
        [
            23,
            "Bleu",
            "",
            ""
        ],
        [
            24,
            "Bleu",
            "",
            ""
        ],
        [
            25,
            "Vert",
            "Plutus",
            " Remove hunc a me. "
        ],
        [
            26,
            "Vert",
            "Chremylus",
            " Age \n                  audacter. "
        ],
        [
            27,
            "Vert",
            "Carion",
            " Numquid quod dico optimum est, o domine. \n                  <br>\n\n\n<br>\n                  Perdo hunc hominem\n                  pessimum huc: <br> sursum ducens supra precipicium aliquod ipsum, et deorsum demittens, <br>\n                  absum, ut illinc excurrat cadens. "
        ],
        [
            28,
            "Vert",
            "Chremylus",
            " Sed dic illico. "
        ],
        [
            29,
            "Vert",
            "Plutus",
            " Nullatenus. "
        ],
        [
            30,
            "Vert",
            "Chremylus",
            " Non igitur dicis? "
        ],
        [
            31,
            "Vert",
            "Plutus",
            " Sed, si persuademini quis sum, bene scio <br> malum aliquod in me operamini et non\n                  dimittetis. "
        ],
        [
            32,
            "Vert",
            "Chremylus",
            " Per deus, me, si consilium tu quidem. "
        ],
        [
            33,
            "Vert",
            "Plutus",
            " Dimittite nunc me primum. "
        ],
        [
            34,
            "Vert",
            "Chremylus",
            " Ecce, dimittimus. "
        ],
        [
            35,
            "Vert",
            "Plutus",
            " Audite iam. Oportet enim, ut videtur, mihi <br> dicere non occultare vel non oculte\n                  dicere eram indispositus: <br> ego enim sum Plutos. "
        ],
        [
            36,
            "Orange",
            "Chremylus",
            " O stultissime  <br> virorum omnium, itaque tacebas, Plutos existens? "
        ],
        [
            37,
            "Orange",
            "Carion",
            " Tu Plutos , sic misere dispositus? <br> O daemones, o Phebe Appollo et dii\n                  et Iupiter, est ille sic, es tu, est quid dicis? "
        ],
        [
            38,
            "Vert",
            "Plutus",
            " Ita. "
        ],
        [
            39,
            "Vert",
            "Chremylus",
            " Ille ipse. "
        ],
        [
            40,
            "Vert",
            "Plutus",
            "\nIpsissime."
        ],
        [
            41,
            "Vert",
            "Chremylus",
            " Unde igitur, dic, tam squalidus vadis? "
        ],
        [
            42,
            "Vert",
            "Plutus",
            " Ex Patrocli templo venio, qui non lotus est , ex his\n                  genitus est. "
        ],
        [
            43,
            "Vert",
            "Chremylus",
            " Hoc autem malum quomodo patiebaris? Dic mihi. "
        ],
        [
            44,
            "Vert",
            "Plutus",
            "Iupiter hoc ipsum fecit hominibus invidens; <br> ego enim, existens adolescens,\n                  cogitavi quod  <br>ad iustos et sapientes et mundanos  <br>solos transirem. Hic autem me\n                  fecit cecum, <br> ut non cognoscerem horum aliquem. <br> Ita ille utilibus et frugi  hominibus\n                  invidet. "
        ],
        [
            45,
            "Vert",
            "Chremylus",
            " Et ipse per bonos quidem honoratur solos atque iustos. "
        ],
        [
            46,
            "Vert",
            "Plutus",
            " Assentio tibi. "
        ],
        [
            47,
            "Vert",
            "Chremylus",
            " Dic aliquid igitur? <br> Si revideres, velut et primum, fugeres utique ipsos malos.\n               "
        ],
        [
            48,
            "Vert",
            "Plutus",
            " Dico ego. "
        ],
        [
            49,
            "Vert",
            "Chremylus",
            "Ad ipsos iustos quidem ires? "
        ],
        [
            50,
            "Vert",
            "Plutus",
            " Maxime quidem. Multo enim ipsos non vidi tempore. "
        ],
        [
            51,
            "Orange",
            "Chremylus",
            " Et miraculum  quidem nullum: neque ego quidem, qui video. "
        ],
        [
            52,
            "Vert",
            "Plutus",
            " Dimittite me nunc; state igitur a me. "
        ],
        [
            53,
            "Vert",
            "Chremylus",
            " Per Iovem, sed multo magis tenebimus te. "
        ],
        [
            54,
            "Vert",
            "Plutus",
            " Numquid dicebam quoniam prebere molestias deberetis mihi? "
        ],
        [
            55,
            "Bleu",
            "Chremylus",
            " Tu, obsecro, crede, et non me derelinquas, deseras: <br> non enim invenies me querens\n                  etiam virum moribus meliorem. <br> Per Iovem, non enim est alter preter ego. "
        ],
        [
            56,
            "Bleu",
            "",
            ""
        ],
        [
            57,
            "Vert",
            "Plutus",
            " Id dicunt omnes; propter me utique <br> fortunantur revera et fiunt divites, <br> absque\n                  ratione excedunt malicia. "
        ],
        [
            58,
            "Vert",
            "Chremylus",
            " Est quidem sic. Sunt autem non omnes mali. "
        ],
        [
            59,
            "Vert",
            "Plutus",
            " Per Iovem, sed quasi omnes. "
        ],
        [
            60,
            "Vert",
            "Carion",
            " Planctus magnus. "
        ],
        [
            61,
            "Vert",
            "Chremylus",
            " Tu autem, si videas quanta a nobis, si maneas, <br> fient bona, adhibeto intellectum\n                  ut persuadearis: <br> existimo, enim, existimo, cum deo autem dictum est, hac <br> liberare\n                  te cecitate videre faciens. "
        ],
        [
            62,
            "Vert",
            "Plutus",
            " Nullatenus id facias: <br> volo enim rursus revidere. "
        ],
        [
            63,
            "Bleu",
            "Chremylus",
            " Quid dicis?  <br>Homo hic est miser natura. "
        ],
        [
            64,
            "Bleu",
            "",
            ""
        ],
        [
            65,
            "Vert",
            "Plutus",
            " Iupiter enim, videns hec horum stulta verba, <br> si audiret utique, conteret me. "
        ],
        [
            66,
            "Vert",
            "Chremylus",
            " Nunc autem non hoc facit, <br> quid te palpitantem  baculo experiri\n                  sinit? "
        ],
        [
            67,
            "Vert",
            "Plutus",
            " Nescio quidem, ego autem illum metuo valde. "
        ],
        [
            68,
            "Vert",
            "Chremylus",
            " Verum, demonum omnium timidissime: puto enim Iovis principatum <br> atque fulmina\n                  trium hobolorum digna, <br> si revideres tu et quidem modicum tempus. "
        ],
        [
            69,
            "Vert",
            "Plutus",
            " Ah, non loquere, o pessime, hec! "
        ],
        [
            70,
            "Vert",
            "Chremylus",
            " Sis quietus!  <br>Ego enim demonstrabo te Iove multo <br> magis potentem. "
        ],
        [
            71,
            "Vert",
            "Plutus",
            " Me, tu? "
        ],
        [
            72,
            "Vert",
            "Chremylus",
            " Ita per celum, <br> mox: enim, per aliquem Iupiter deorum? "
        ],
        [
            73,
            "Vert",
            "Carion",
            " Per argentum: quidem multum enim est ei. "
        ],
        [
            74,
            "Vert",
            "Chremylus",
            " Dic, quis igitur prebens est ei hoc? "
        ],
        [
            75,
            "Vert",
            "Carion",
            " Hic. "
        ],
        [
            76,
            "Vert",
            "Chremylus",
            " Sacra faciunt autem ei propter aliquid? Non propter hunc? "
        ],
        [
            77,
            "Vert",
            "Carion",
            " Ita, per Iovem, optant quidem divites fieri contra. "
        ],
        [
            78,
            "Vert",
            "Chremylus",
            " Non igitur hic quidem est causa et faciliter <br> cessarent, si vellent, hunc? "
        ],
        [
            79,
            "Vert",
            "Plutus",
            " Quid quid iam? "
        ],
        [
            80,
            "Vert",
            "Chremylus",
            " Quod non quidem unus sacrificaret homo amplius, <br> neque bovem, neque placentam,\n                  neque aliquid aliud, <br> nolente te. "
        ],
        [
            81,
            "Vert",
            "Plutus",
            " Quomodo? "
        ],
        [
            82,
            "Vert",
            "Chremylus",
            " Quomodo? Non est sic <br> qualiter annuet votis, si tu non presens <br> es, \n                  <br>\n\n\n<br>\n                  ipse dansque argentum, itaque Iovis <br> potentiam, si leserit aliquid, tu dissolvis\n                  solus. "
        ],
        [
            83,
            "Vert",
            "Plutus",
            " Quid dicis? Per me sacrificant ei? "
        ],
        [
            84,
            "Vert",
            "Chremylus",
            " Dico, ego; et, per Iovem, si aliquid est pulchrum et preclarum  <br>aut charum inter\n                  homines, per te fit: <br> universa enim hoc ditia esse intellexi. "
        ],
        [
            85,
            "Vert",
            "Carion",
            " Ego quidem propter modicum argentulum <br> servus factus sum, propter hoc non ad\n                  ditescendum forte. "
        ],
        [
            86,
            "Vert",
            "Chremylus",
            " Et has alias dicunt illas Chorinthias, quando <br> quidem eas aliquis pauper expertus\n                  fuerit, <br> nihil adhibere ipsum intellectum; si autem dives, <br> podicem ad has mox hunc\n                  vertere. "
        ],
        [
            87,
            "Vert",
            "Carion",
            " Et pueros dicunt hoc ipsum facere, <br> non amatorum, sed argenti gratia. "
        ],
        [
            88,
            "Vert",
            "Chremylus",
            " Non quidem bonos, sed cinedos: quoniam <br> petunt non argentum boni. "
        ],
        [
            89,
            "Vert",
            "Carion",
            "\nChr. Quid demum? "
        ],
        [
            90,
            "Vert",
            "Chremylus",
            " Hic quidem equum bonum, hic autem canes venaticos. "
        ],
        [
            91,
            "Vert",
            "Carion",
            " Verecundantes enim argentum petere forte, <br> nomine incidunt flagitium. "
        ],
        [
            92,
            "Bleu",
            "Chremylus",
            "Artes autem omnes propter te atque deceptiones <br> inter homines sunt inventa. <br> Hic\n                  enim eorum corium secat sedens, <br> alter aera fabricat quispiam, hic autem edificat, <br>\n                  ille vero aurum fundit, aurum abs te accipiens. <br> Hic quidem latrocinatur inter\n                  homines, ille vero parietes fodit, <br> hic fullonariam exercitat, hic lavat pellem\n                  villosam, <br> hic corium tingit, ille vendit cepas, <br> hic autem leno aut moechus propter\n                  te prorsus emergit. "
        ],
        [
            93,
            "Bleu",
            "",
            ""
        ],
        [
            94,
            "Bleu",
            "",
            ""
        ],
        [
            95,
            "Bleu",
            "",
            ""
        ],
        [
            96,
            "Bleu",
            "",
            ""
        ],
        [
            97,
            "Bleu",
            "",
            ""
        ],
        [
            98,
            "Bleu",
            "",
            ""
        ],
        [
            99,
            "Vert",
            "Plutus",
            "Heu me miserum, hic me ocultavit olim! "
        ],
        [
            100,
            "Magenta",
            [
                [
                    "Chremylus",
                    "Magnus autem rex non propter hunc exaltatur? "
                ],
                [
                    "Carion",
                    "Hominum cetus num propter hunc fit? "
                ]
            ]
        ],
        [
            101,
            "Vert",
            "Chremylus",
            "Dic demum, galleas num tu imples? Dic mihi. "
        ],
        [
            102,
            "Magenta",
            [
                [
                    "Carion",
                    "Hoc quidem in Chorinto hospicium num hic alit? "
                ],
                [
                    "Chremylus",
                    "Bonus amicus autem num propter hunc flebit? "
                ]
            ]
        ],
        [
            103,
            "Orange",
            "Carion",
            "Acuum venditor  autem num post hunc bonum amicum ?\n               "
        ],
        [
            104,
            "Orange",
            "Chremylus",
            " Argentum  num propter hunc extrahitur ?\n               "
        ],
        [
            105,
            "Magenta",
            [
                [
                    "Carion",
                    " Bulones  num propter te fabulas dicunt? "
                ],
                [
                    "Chremylus",
                    " Societas autem num propter te cum Egiptiis? "
                ],
                [
                    "Carion",
                    " Amat autem Lais num propter te Philonidem? "
                ]
            ]
        ],
        [
            106,
            "Orange",
            "Chremylus",
            " Ipsa autem fasta  num turris\u2026"
        ],
        [
            107,
            "Orange",
            "Carion",
            " Cederet tibi !\n               "
        ],
        [
            108,
            "Orange",
            "Chremylus",
            " Ipse autem res num propter te omnes fiunt? <br> Solissimus igitur es tu omnium causa <br>\n                  et malorum et bonorum, bene scis. Etiam <br> dominantur quidem militibus, <br> supra quos\n                  utique hic supersedet solus. "
        ],
        [
            109,
            "Vert",
            "Plutus",
            " Ego tanta potens sum facere? "
        ],
        [
            110,
            "Vert",
            "Chremylus",
            " Etiam, per Iovem, his quidem multo plura! <br> Itaque nihil neque plenus tui factus\n                  nullus umquam; <br> etenim ceterorum omnium est satietas: <br> amoris\u2026"
        ],
        [
            111,
            "Vert",
            "Carion",
            " Panum. "
        ],
        [
            112,
            "Vert",
            "Chremylus",
            " Musice. "
        ],
        [
            113,
            "Vert",
            "Carion",
            " Bellaria. "
        ],
        [
            114,
            "Vert",
            "Chremylus",
            " Honoris. "
        ],
        [
            115,
            "Vert",
            "Carion",
            " Placentarum. "
        ],
        [
            116,
            "Vert",
            "Chremylus",
            " Virilium actionum. "
        ],
        [
            117,
            "Vert",
            "Carion",
            " Charicarum. "
        ],
        [
            118,
            "Vert",
            "Chremylus",
            " Ambitionis. "
        ],
        [
            119,
            "Vert",
            "Carion",
            " Offe ex farina aqua oleo. "
        ],
        [
            120,
            "Vert",
            "Chremylus",
            " Militie. "
        ],
        [
            121,
            "Vert",
            "Carion",
            " Lentis. "
        ],
        [
            122,
            "Vert",
            "Chremylus",
            " Tui autem fit nullus plenus numquam, <br> at, si talenta aliquis capit tria et decem, <br>\n                  multo magis desiderat capere sex et decem; <br> et, si hec perficiet, quadraginta vult, <br>\n                  aut dicit non esse sufficientem ei victum. "
        ],
        [
            123,
            "Vert",
            "Plutus",
            " Bene dicis mihi manifeste valde, <br> preter unum solum timui. "
        ],
        [
            124,
            "Vert",
            "Chremylus",
            " Loquere de hoc. "
        ],
        [
            125,
            "Vert",
            "Plutus",
            " Quomodo hanc potentiam, quam vos dicitis <br> habere me, huius dominus fiam? "
        ],
        [
            126,
            "Vert",
            "Chremylus",
            " Ita per Iovem, sed dicunt omnes tamquam <br> timidissimum est Plutos. "
        ],
        [
            127,
            "Vert",
            "Plutus",
            " Minime, sed me <br> parietum fossor aliquis traiecit: intra vix unquam, <br> non potuit ad\n                  domum nihil capere, <br> inveniens simul omnia clausa. <br> Postea quidem nominavit me\n                  providentiam timidam. "
        ],
        [
            128,
            "Vert",
            "Chremylus",
            " Non nunc meditaretur de te nihil! Ut, si fias <br> vir propensus ipse ad negotia\n                     ,\n                  <br>\n\n\n<br>\n                  videntem demonstrabo te acutiorem Lince. "
        ],
        [
            129,
            "Vert",
            "Plutus",
            " Quomodo, igitur, poteris hoc facere, mortalis cum sis? "
        ],
        [
            130,
            "Vert",
            "Chremylus",
            " Habeo aliquam bonam spem ex quibus dic mihi  <br>Phoebus ipse, pythicam est, quatiens\n                  laurum. "
        ],
        [
            131,
            "Vert",
            "Plutus",
            " Videte! "
        ],
        [
            132,
            "Gris",
            "",
            ""
        ],
        [
            133,
            "Gris",
            "",
            ""
        ],
        [
            134,
            "Bleu",
            "Chremylus",
            " Non cura, neque irascere!  <br>Ego enim, bene hoc scis, et si oportet me mori, <br> ipse\n                  faciam hec. "
        ],
        [
            135,
            "Vert",
            "Carion",
            " Et si volueris, et ego. "
        ],
        [
            136,
            "Vert",
            "Chremylus",
            " Multi autem erunt et alii nobis socii  <br>quibus, iustis existentibus, non erat\n                  farina. "
        ],
        [
            137,
            "Vert",
            "Plutus",
            " Papae, malignos non dicas nobis sotios! "
        ],
        [
            138,
            "Vert",
            "Chremylus",
            "\nNon, si quidem ditescent ab initio rursus. <br> Sed vade tu, quidem, velociter\n                  currens. "
        ],
        [
            139,
            "Vert",
            "Carion",
            " Quid facio? Dic. "
        ],
        [
            140,
            "Vert",
            "Chremylus",
            " Ipsos cooperantes seu rusticos vocato, invenies iam forte <br> in agris ipsos\n                  defatigatos labore, <br> ut pariter quisque hic presens <br> cum nobis participet aliquam\n                  quidem Pluti partem. "
        ],
        [
            141,
            "Vert",
            "Carion",
            " Et iam vado, hanc autem carunculam  <br>eorum ab intus aliquis intro ferat accipiens.\n               "
        ],
        [
            142,
            "Vert",
            "Chremylus",
            " Mihi debebit hoc quidem, sed festinans curre. <br> Tu, autem, potentissime Plute\n                  omnium demonum, <br> intro cum me huc ingredere: hec enim domus  <br>ea est quam oportet\n                  pecuniis te hodie <br> plenam facere, et iuste et iniuste. "
        ],
        [
            143,
            "Vert",
            "Plutus",
            " Sed doleo quidem, ingrediens per deos <br> in domum quamlibet alienam valde: <br> bono enim\n                  fretus sum nullo eius unquam. Si enim ad avarum ingressus fuero, <br> mox defodit me\n                  terram subtus; <br> et, si quis accesserit bonus homo amicus, <br> petens accipere aliquod\n                  parvum argentulum,  <br>negans est nihil videre me unquam. <br> Si autem ad insanum hominem\n                  ingressus fuero, <br> nudus a ianua excidam ad extremum tempus. "
        ],
        [
            144,
            "Vert",
            "Chremylus",
            " Modestum  enim virum num consecutus es unquam. <br> Ego autem his moribus quibus sum semper: \n                  <br>\n\n\n<br>\n                  gaudeo etenim miseratus quod nullus vir, <br> rursusque recipiens,\n                  propter hunc utique timeat. <br> Sed introeamus, ad videndum te volo <br> et coniugem et\n                  filium unicum  <br>quem ego amo maxime post te. "
        ],
        [
            145,
            "Vert",
            "Plutus",
            " Credo, persuadeor. "
        ],
        [
            146,
            "Vert",
            "Chremylus",
            " Quid enim si aliquis non ad te vera diceret? "
        ],
        [
            147,
            "Vert",
            "Carion",
            " O \n                  multa iam domino hunc animum comedentes, <br> viri, amici et cives et ad laborandum\n                  alacres, <br> postea ego accelerate, festinate, ut tempus non vacet. <br> Sed est in ipsa\n                  summitate hac oportet presentes ulcisci. "
        ],
        [
            148,
            "Vert",
            "Chorus",
            " Non igitur vides concitatos nos prius sponte,  <br>velut verisimile est inbecilles\n                  senes viros iam? <br> Tu autem velles fortassis dimittere prius hec et dic mihi <br> cuius\n                  gratia et dominus qualis vocavit nos. "
        ],
        [
            149,
            "Vert",
            "Carion",
            " Num igitur olim iam dico? Tu autem ipse non audis: <br> dominus enim dixit vos\n                  delectabiliter omnes <br> frigida vita et difficili vivere liberatos. "
        ],
        [
            150,
            "Vert",
            "Chorus",
            " Est aut ita et unde res hec quam dicis? "
        ],
        [
            151,
            "Vert",
            "Carion",
            " Habeo convenire illic senem aliquem, o ignavi, <br> squalidum, gibbosum, miserum,\n                  rugosum, calvum, edentulum: <br> puto, autem, per ipsum caelum, et sine preputio ipsum\n                  esse. "
        ],
        [
            152,
            "Vert",
            "Chorus",
            " \u1f66</foreign> aurum nunciasti referens, de ipso rursus dic mihi: <br> ostendis enim ipsum adire\n                  acervum pecuniarum habentem. "
        ],
        [
            153,
            "FFFFDE59",
            "",
            ""
        ],
        [
            154,
            "FFFFDE59",
            "",
            ""
        ],
        [
            155,
            "FFFFDE59",
            "",
            ""
        ],
        [
            156,
            "FFFFDE59",
            "",
            ""
        ],
        [
            157,
            "FFFFDE59",
            "",
            ""
        ],
        [
            158,
            "FFFFDE59",
            "",
            ""
        ],
        [
            159,
            "FFFFDE59",
            "",
            ""
        ],
        [
            160,
            "FFFFDE59",
            "",
            ""
        ],
        [
            161,
            "FFFFDE59",
            "",
            ""
        ],
        [
            162,
            "FFFFDE59",
            "",
            ""
        ],
        [
            163,
            "FFFFDE59",
            "",
            ""
        ],
        [
            164,
            "FFFFDE59",
            "",
            ""
        ],
        [
            165,
            "FFFFDE59",
            "",
            ""
        ],
        [
            166,
            "FFFFDE59",
            "",
            ""
        ],
        [
            167,
            "FFFFDE59",
            "",
            ""
        ],
        [
            168,
            "FFFFDE59",
            "",
            ""
        ],
        [
            169,
            "FFFFDE59",
            "",
            ""
        ],
        [
            170,
            "FFFFDE59",
            "",
            ""
        ],
        [
            171,
            "FFFFDE59",
            "",
            ""
        ],
        [
            172,
            "FFFFDE59",
            "",
            ""
        ],
        [
            173,
            "FFFFDE59",
            "",
            ""
        ],
        [
            174,
            "FFFFDE59",
            "",
            ""
        ],
        [
            175,
            "FFFFDE59",
            "",
            ""
        ],
        [
            176,
            "FFFFDE59",
            "",
            ""
        ],
        [
            177,
            "FFFFDE59",
            "",
            ""
        ],
        [
            178,
            "FFFFDE59",
            "",
            ""
        ],
        [
            179,
            "FFFFDE59",
            "",
            ""
        ],
        [
            180,
            "FFFFDE59",
            "",
            ""
        ],
        [
            181,
            "FFFFDE59",
            "",
            ""
        ],
        [
            182,
            "FFFFDE59",
            "",
            ""
        ],
        [
            183,
            "FFFFDE59",
            "",
            ""
        ],
        [
            184,
            "FFFFDE59",
            "",
            ""
        ],
        [
            185,
            "FFFFDE59",
            "",
            ""
        ],
        [
            186,
            "FFFFDE59",
            "",
            ""
        ],
        [
            187,
            "FFFFDE59",
            "",
            ""
        ],
        [
            188,
            "FFFFDE59",
            "",
            ""
        ],
        [
            189,
            "FFFFDE59",
            "",
            ""
        ],
        [
            190,
            "FFFFDE59",
            "",
            ""
        ],
        [
            191,
            "FFFFDE59",
            "",
            ""
        ],
        [
            192,
            "FFFFDE59",
            "",
            ""
        ],
        [
            193,
            "FFFFDE59",
            "",
            ""
        ],
        [
            194,
            "FFFFDE59",
            "",
            ""
        ],
        [
            195,
            "FFFFDE59",
            "",
            ""
        ],
        [
            196,
            "FFFFDE59",
            "",
            ""
        ],
        [
            197,
            "FFFFDE59",
            "",
            ""
        ],
        [
            198,
            "FFFFDE59",
            "",
            ""
        ],
        [
            199,
            "FFFFDE59",
            "",
            ""
        ],
        [
            200,
            "FFFFDE59",
            "",
            ""
        ],
        [
            201,
            "FFFFDE59",
            "",
            ""
        ],
        [
            202,
            "FFFFDE59",
            "",
            ""
        ],
        [
            203,
            "FFFFDE59",
            "",
            ""
        ],
        [
            204,
            "FFFFDE59",
            "",
            ""
        ],
        [
            205,
            "FFFFDE59",
            "",
            ""
        ],
        [
            206,
            "FFFFDE59",
            "",
            ""
        ],
        [
            207,
            "FFFFDE59",
            "",
            ""
        ],
        [
            208,
            "FFFFDE59",
            "",
            ""
        ],
        [
            209,
            "FFFFDE59",
            "",
            ""
        ],
        [
            210,
            "FFFFDE59",
            "",
            ""
        ],
        [
            211,
            "FFFFDE59",
            "",
            ""
        ],
        [
            212,
            "FFFFDE59",
            "",
            ""
        ],
        [
            213,
            "FFFFDE59",
            "",
            ""
        ],
        [
            214,
            "FFFFDE59",
            "",
            ""
        ],
        [
            215,
            "FFFFDE59",
            "",
            ""
        ],
        [
            216,
            "FFFFDE59",
            "",
            ""
        ],
        [
            217,
            "FFFFDE59",
            "",
            ""
        ],
        [
            218,
            "FFFFDE59",
            "",
            ""
        ],
        [
            219,
            "FFFFDE59",
            "",
            ""
        ],
        [
            220,
            "FFFFDE59",
            "",
            ""
        ],
        [
            221,
            "FFFFDE59",
            "",
            ""
        ],
        [
            222,
            "FFFFDE59",
            "",
            ""
        ],
        [
            223,
            "FFFFDE59",
            "",
            ""
        ],
        [
            224,
            "FFFFDE59",
            "",
            ""
        ],
        [
            225,
            "FFFFDE59",
            "",
            ""
        ],
        [
            226,
            "FFFFDE59",
            "",
            ""
        ],
        [
            227,
            "FFFFDE59",
            "",
            ""
        ],
        [
            228,
            "FFFFDE59",
            "",
            ""
        ],
        [
            229,
            "FFFFDE59",
            "",
            ""
        ],
        [
            230,
            "FFFFDE59",
            "",
            ""
        ],
        [
            231,
            "FFFFDE59",
            "",
            ""
        ],
        [
            232,
            "FFFFDE59",
            "",
            ""
        ],
        [
            233,
            "FFFFDE59",
            "",
            ""
        ],
        [
            234,
            "FFFFDE59",
            "",
            ""
        ],
        [
            235,
            "FFFFDE59",
            "",
            ""
        ],
        [
            236,
            "FFFFDE59",
            "",
            ""
        ],
        [
            237,
            "FFFFDE59",
            "",
            ""
        ],
        [
            238,
            "FFFFDE59",
            "",
            ""
        ],
        [
            239,
            "FFFFDE59",
            "",
            ""
        ],
        [
            240,
            "FFFFDE59",
            "",
            ""
        ],
        [
            241,
            "FFFFDE59",
            "",
            ""
        ],
        [
            242,
            "FFFFDE59",
            "",
            ""
        ],
        [
            243,
            "FFFFDE59",
            "",
            ""
        ],
        [
            244,
            "FFFFDE59",
            "",
            ""
        ],
        [
            245,
            "FFFFDE59",
            "",
            ""
        ],
        [
            246,
            "FFFFDE59",
            "",
            ""
        ],
        [
            247,
            "FFFFDE59",
            "",
            ""
        ],
        [
            248,
            "FFFFDE59",
            "",
            ""
        ],
        [
            249,
            "FFFFDE59",
            "",
            ""
        ],
        [
            250,
            "FFFFDE59",
            "",
            ""
        ],
        [
            251,
            "FFFFDE59",
            "",
            ""
        ],
        [
            252,
            "FFFFDE59",
            "",
            ""
        ],
        [
            253,
            "FFFFDE59",
            "",
            ""
        ],
        [
            254,
            "FFFFDE59",
            "",
            ""
        ],
        [
            255,
            "FFFFDE59",
            "",
            ""
        ],
        [
            256,
            "FFFFDE59",
            "",
            ""
        ],
        [
            257,
            "FFFFDE59",
            "",
            ""
        ],
        [
            258,
            "FFFFDE59",
            "",
            ""
        ],
        [
            259,
            "FFFFDE59",
            "",
            ""
        ],
        [
            260,
            "FFFFDE59",
            "",
            ""
        ],
        [
            261,
            "FFFFDE59",
            "",
            ""
        ],
        [
            262,
            "FFFFDE59",
            "",
            ""
        ],
        [
            263,
            "FFFFDE59",
            "",
            ""
        ],
        [
            264,
            "FFFFDE59",
            "",
            ""
        ],
        [
            265,
            "FFFFDE59",
            "",
            ""
        ],
        [
            266,
            "FFFFDE59",
            "",
            ""
        ],
        [
            267,
            "FFFFDE59",
            "",
            ""
        ],
        [
            268,
            "FFFFDE59",
            "",
            ""
        ],
        [
            269,
            "FFFFDE59",
            "",
            ""
        ],
        [
            270,
            "FFFFDE59",
            "",
            ""
        ],
        [
            271,
            "FFFFDE59",
            "",
            ""
        ],
        [
            272,
            "FFFFDE59",
            "",
            ""
        ],
        [
            273,
            "FFFFDE59",
            "",
            ""
        ],
        [
            274,
            "FFFFDE59",
            "",
            ""
        ],
        [
            275,
            "FFFFDE59",
            "",
            ""
        ],
        [
            276,
            "FFFFDE59",
            "",
            ""
        ],
        [
            277,
            "FFFFDE59",
            "",
            ""
        ],
        [
            278,
            "FFFFDE59",
            "",
            ""
        ],
        [
            279,
            "FFFFDE59",
            "",
            ""
        ],
        [
            280,
            "FFFFDE59",
            "",
            ""
        ],
        [
            281,
            "FFFFDE59",
            "",
            ""
        ],
        [
            282,
            "FFFFDE59",
            "",
            ""
        ],
        [
            283,
            "FFFFDE59",
            "",
            ""
        ],
        [
            284,
            "FFFFDE59",
            "",
            ""
        ],
        [
            285,
            "FFFFDE59",
            "",
            ""
        ],
        [
            286,
            "FFFFDE59",
            "",
            ""
        ],
        [
            287,
            "FFFFDE59",
            "",
            ""
        ],
        [
            288,
            "FFFFDE59",
            "",
            ""
        ],
        [
            289,
            "FFFFDE59",
            "",
            ""
        ],
        [
            290,
            "FFFFDE59",
            "",
            ""
        ],
        [
            291,
            "FFFFDE59",
            "",
            ""
        ],
        [
            292,
            "FFFFDE59",
            "",
            ""
        ],
        [
            293,
            "FFFFDE59",
            "",
            ""
        ],
        [
            294,
            "FFFFDE59",
            "",
            ""
        ],
        [
            295,
            "FFFFDE59",
            "",
            ""
        ],
        [
            296,
            "FFFFDE59",
            "",
            ""
        ],
        [
            297,
            "FFFFDE59",
            "",
            ""
        ],
        [
            298,
            "FFFFDE59",
            "",
            ""
        ],
        [
            299,
            "FFFFDE59",
            "",
            ""
        ],
        [
            300,
            "FFFFDE59",
            "",
            ""
        ],
        [
            301,
            "FFFFDE59",
            "",
            ""
        ],
        [
            302,
            "FFFFDE59",
            "",
            ""
        ],
        [
            303,
            "FFFFDE59",
            "",
            ""
        ],
        [
            304,
            "FFFFDE59",
            "",
            ""
        ],
        [
            305,
            "FFFFDE59",
            "",
            ""
        ],
        [
            306,
            "FFFFDE59",
            "",
            ""
        ],
        [
            307,
            "FFFFDE59",
            "",
            ""
        ],
        [
            308,
            "FFFFDE59",
            "",
            ""
        ],
        [
            309,
            "FFFFDE59",
            "",
            ""
        ],
        [
            310,
            "FFFFDE59",
            "",
            ""
        ],
        [
            311,
            "FFFFDE59",
            "",
            ""
        ],
        [
            312,
            "FFFFDE59",
            "",
            ""
        ],
        [
            313,
            "FFFFDE59",
            "",
            ""
        ],
        [
            314,
            "FFFFDE59",
            "",
            ""
        ],
        [
            315,
            "FFFFDE59",
            "",
            ""
        ],
        [
            316,
            "FFFFDE59",
            "",
            ""
        ],
        [
            317,
            "FFFFDE59",
            "",
            ""
        ],
        [
            318,
            "FFFFDE59",
            "",
            ""
        ],
        [
            319,
            "FFFFDE59",
            "",
            ""
        ],
        [
            320,
            "FFFFDE59",
            "",
            ""
        ],
        [
            321,
            "FFFFDE59",
            "",
            ""
        ],
        [
            322,
            "FFFFDE59",
            "",
            ""
        ],
        [
            323,
            "FFFFDE59",
            "",
            ""
        ],
        [
            324,
            "FFFFDE59",
            "",
            ""
        ],
        [
            325,
            "FFFFDE59",
            "",
            ""
        ],
        [
            326,
            "FFFFDE59",
            "",
            ""
        ],
        [
            327,
            "FFFFDE59",
            "",
            ""
        ],
        [
            328,
            "FFFFDE59",
            "",
            ""
        ],
        [
            329,
            "FFFFDE59",
            "",
            ""
        ],
        [
            330,
            "FFFFDE59",
            "",
            ""
        ],
        [
            331,
            "FFFFDE59",
            "",
            ""
        ],
        [
            332,
            "FFFFDE59",
            "",
            ""
        ],
        [
            333,
            "FFFFDE59",
            "",
            ""
        ],
        [
            334,
            "FFFFDE59",
            "",
            ""
        ],
        [
            335,
            "FFFFDE59",
            "",
            ""
        ],
        [
            336,
            "FFFFDE59",
            "",
            ""
        ],
        [
            337,
            "FFFFDE59",
            "",
            ""
        ],
        [
            338,
            "FFFFDE59",
            "",
            ""
        ],
        [
            339,
            "FFFFDE59",
            "",
            ""
        ],
        [
            340,
            "FFFFDE59",
            "",
            ""
        ],
        [
            341,
            "FFFFDE59",
            "",
            ""
        ],
        [
            342,
            "FFFFDE59",
            "",
            ""
        ],
        [
            343,
            "FFFFDE59",
            "",
            ""
        ],
        [
            344,
            "FFFFDE59",
            "",
            ""
        ],
        [
            345,
            "FFFFDE59",
            "",
            ""
        ],
        [
            346,
            "FFFFDE59",
            "",
            ""
        ],
        [
            347,
            "FFFFDE59",
            "",
            ""
        ],
        [
            348,
            "FFFFDE59",
            "",
            ""
        ],
        [
            349,
            "FFFFDE59",
            "",
            ""
        ],
        [
            350,
            "FFFFDE59",
            "",
            ""
        ],
        [
            351,
            "FFFFDE59",
            "",
            ""
        ],
        [
            352,
            "FFFFDE59",
            "",
            ""
        ],
        [
            353,
            "FFFFDE59",
            "",
            ""
        ],
        [
            354,
            "FFFFDE59",
            "",
            ""
        ],
        [
            355,
            "FFFFDE59",
            "",
            ""
        ],
        [
            356,
            "FFFFDE59",
            "",
            ""
        ],
        [
            357,
            "FFFFDE59",
            "",
            ""
        ],
        [
            358,
            "FFFFDE59",
            "",
            ""
        ],
        [
            359,
            "FFFFDE59",
            "",
            ""
        ],
        [
            360,
            "FFFFDE59",
            "",
            ""
        ],
        [
            361,
            "FFFFDE59",
            "",
            ""
        ],
        [
            362,
            "FFFFDE59",
            "",
            ""
        ],
        [
            363,
            "FFFFDE59",
            "",
            ""
        ],
        [
            364,
            "FFFFDE59",
            "",
            ""
        ],
        [
            365,
            "FFFFDE59",
            "",
            ""
        ],
        [
            366,
            "FFFFDE59",
            "",
            ""
        ],
        [
            367,
            "FFFFDE59",
            "",
            ""
        ],
        [
            368,
            "FFFFDE59",
            "",
            ""
        ],
        [
            369,
            "FFFFDE59",
            "",
            ""
        ],
        [
            370,
            "FFFFDE59",
            "",
            ""
        ],
        [
            371,
            "FFFFDE59",
            "",
            ""
        ],
        [
            372,
            "FFFFDE59",
            "",
            ""
        ],
        [
            373,
            "FFFFDE59",
            "",
            ""
        ],
        [
            374,
            "FFFFDE59",
            "",
            ""
        ],
        [
            375,
            "FFFFDE59",
            "",
            ""
        ],
        [
            376,
            "FFFFDE59",
            "",
            ""
        ],
        [
            377,
            "FFFFDE59",
            "",
            ""
        ],
        [
            378,
            "FFFFDE59",
            "",
            ""
        ],
        [
            379,
            "FFFFDE59",
            "",
            ""
        ],
        [
            380,
            "FFFFDE59",
            "",
            ""
        ],
        [
            381,
            "FFFFDE59",
            "",
            ""
        ],
        [
            382,
            "FFFFDE59",
            "",
            ""
        ],
        [
            383,
            "FFFFDE59",
            "",
            ""
        ],
        [
            384,
            "FFFFDE59",
            "",
            ""
        ],
        [
            385,
            "FFFFDE59",
            "",
            ""
        ],
        [
            386,
            "FFFFDE59",
            "",
            ""
        ],
        [
            387,
            "FFFFDE59",
            "",
            ""
        ],
        [
            388,
            "FFFFDE59",
            "",
            ""
        ],
        [
            389,
            "FFFFDE59",
            "",
            ""
        ],
        [
            390,
            "FFFFDE59",
            "",
            ""
        ],
        [
            391,
            "FFFFDE59",
            "",
            ""
        ],
        [
            392,
            "FFFFDE59",
            "",
            ""
        ],
        [
            393,
            "FFFFDE59",
            "",
            ""
        ],
        [
            394,
            "FFFFDE59",
            "",
            ""
        ],
        [
            395,
            "FFFFDE59",
            "",
            ""
        ],
        [
            396,
            "FFFFDE59",
            "",
            ""
        ],
        [
            397,
            "FFFFDE59",
            "",
            ""
        ],
        [
            398,
            "FFFFDE59",
            "",
            ""
        ],
        [
            399,
            "FFFFDE59",
            "",
            ""
        ],
        [
            400,
            "FFFFDE59",
            "",
            ""
        ],
        [
            401,
            "FFFFDE59",
            "",
            ""
        ],
        [
            402,
            "FFFFDE59",
            "",
            ""
        ],
        [
            403,
            "FFFFDE59",
            "",
            ""
        ],
        [
            404,
            "FFFFDE59",
            "",
            ""
        ],
        [
            405,
            "FFFFDE59",
            "",
            ""
        ],
        [
            406,
            "FFFFDE59",
            "",
            ""
        ],
        [
            407,
            "FFFFDE59",
            "",
            ""
        ],
        [
            408,
            "FFFFDE59",
            "",
            ""
        ],
        [
            409,
            "FFFFDE59",
            "",
            ""
        ],
        [
            410,
            "FFFFDE59",
            "",
            ""
        ],
        [
            411,
            "FFFFDE59",
            "",
            ""
        ],
        [
            412,
            "FFFFDE59",
            "",
            ""
        ],
        [
            413,
            "FFFFDE59",
            "",
            ""
        ],
        [
            414,
            "FFFFDE59",
            "",
            ""
        ],
        [
            415,
            "FFFFDE59",
            "",
            ""
        ],
        [
            416,
            "FFFFDE59",
            "",
            ""
        ],
        [
            417,
            "FFFFDE59",
            "",
            ""
        ],
        [
            418,
            "FFFFDE59",
            "",
            ""
        ],
        [
            419,
            "FFFFDE59",
            "",
            ""
        ],
        [
            420,
            "FFFFDE59",
            "",
            ""
        ],
        [
            421,
            "FFFFDE59",
            "",
            ""
        ],
        [
            422,
            "FFFFDE59",
            "",
            ""
        ],
        [
            423,
            "FFFFDE59",
            "",
            ""
        ],
        [
            424,
            "FFFFDE59",
            "",
            ""
        ],
        [
            425,
            "FFFFDE59",
            "",
            ""
        ],
        [
            426,
            "FFFFDE59",
            "",
            ""
        ],
        [
            427,
            "FFFFDE59",
            "",
            ""
        ],
        [
            428,
            "FFFFDE59",
            "",
            ""
        ],
        [
            429,
            "FFFFDE59",
            "",
            ""
        ],
        [
            430,
            "FFFFDE59",
            "",
            ""
        ],
        [
            431,
            "FFFFDE59",
            "",
            ""
        ],
        [
            432,
            "FFFFDE59",
            "",
            ""
        ],
        [
            433,
            "FFFFDE59",
            "",
            ""
        ],
        [
            434,
            "FFFFDE59",
            "",
            ""
        ],
        [
            435,
            "FFFFDE59",
            "",
            ""
        ],
        [
            436,
            "FFFFDE59",
            "",
            ""
        ],
        [
            437,
            "FFFFDE59",
            "",
            ""
        ],
        [
            438,
            "FFFFDE59",
            "",
            ""
        ],
        [
            439,
            "FFFFDE59",
            "",
            ""
        ],
        [
            440,
            "FFFFDE59",
            "",
            ""
        ],
        [
            441,
            "FFFFDE59",
            "",
            ""
        ],
        [
            442,
            "FFFFDE59",
            "",
            ""
        ],
        [
            443,
            "FFFFDE59",
            "",
            ""
        ],
        [
            444,
            "FFFFDE59",
            "",
            ""
        ],
        [
            445,
            "FFFFDE59",
            "",
            ""
        ],
        [
            446,
            "FFFFDE59",
            "",
            ""
        ],
        [
            447,
            "FFFFDE59",
            "",
            ""
        ],
        [
            448,
            "FFFFDE59",
            "",
            ""
        ],
        [
            449,
            "FFFFDE59",
            "",
            ""
        ],
        [
            450,
            "FFFFDE59",
            "",
            ""
        ],
        [
            451,
            "FFFFDE59",
            "",
            ""
        ],
        [
            452,
            "FFFFDE59",
            "",
            ""
        ],
        [
            453,
            "FFFFDE59",
            "",
            ""
        ],
        [
            454,
            "FFFFDE59",
            "",
            ""
        ],
        [
            455,
            "FFFFDE59",
            "",
            ""
        ],
        [
            456,
            "FFFFDE59",
            "",
            ""
        ],
        [
            457,
            "FFFFDE59",
            "",
            ""
        ],
        [
            458,
            "FFFFDE59",
            "",
            ""
        ],
        [
            459,
            "FFFFDE59",
            "",
            ""
        ],
        [
            460,
            "FFFFDE59",
            "",
            ""
        ],
        [
            461,
            "FFFFDE59",
            "",
            ""
        ],
        [
            462,
            "FFFFDE59",
            "",
            ""
        ],
        [
            463,
            "FFFFDE59",
            "",
            ""
        ],
        [
            464,
            "FFFFDE59",
            "",
            ""
        ],
        [
            465,
            "FFFFDE59",
            "",
            ""
        ],
        [
            466,
            "FFFFDE59",
            "",
            ""
        ],
        [
            467,
            "FFFFDE59",
            "",
            ""
        ],
        [
            468,
            "FFFFDE59",
            "",
            ""
        ],
        [
            469,
            "FFFFDE59",
            "",
            ""
        ],
        [
            470,
            "FFFFDE59",
            "",
            ""
        ],
        [
            471,
            "FFFFDE59",
            "",
            ""
        ],
        [
            472,
            "FFFFDE59",
            "",
            ""
        ],
        [
            473,
            "FFFFDE59",
            "",
            ""
        ],
        [
            474,
            "FFFFDE59",
            "",
            ""
        ],
        [
            475,
            "FFFFDE59",
            "",
            ""
        ],
        [
            476,
            "FFFFDE59",
            "",
            ""
        ],
        [
            477,
            "FFFFDE59",
            "",
            ""
        ],
        [
            478,
            "FFFFDE59",
            "",
            ""
        ],
        [
            479,
            "FFFFDE59",
            "",
            ""
        ],
        [
            480,
            "FFFFDE59",
            "",
            ""
        ],
        [
            481,
            "FFFFDE59",
            "",
            ""
        ],
        [
            482,
            "FFFFDE59",
            "",
            ""
        ],
        [
            483,
            "FFFFDE59",
            "",
            ""
        ],
        [
            484,
            "FFFFDE59",
            "",
            ""
        ],
        [
            485,
            "FFFFDE59",
            "",
            ""
        ],
        [
            486,
            "FFFFDE59",
            "",
            ""
        ],
        [
            487,
            "FFFFDE59",
            "",
            ""
        ],
        [
            488,
            "FFFFDE59",
            "",
            ""
        ],
        [
            489,
            "FFFFDE59",
            "",
            ""
        ],
        [
            490,
            "FFFFDE59",
            "",
            ""
        ],
        [
            491,
            "FFFFDE59",
            "",
            ""
        ],
        [
            492,
            "FFFFDE59",
            "",
            ""
        ],
        [
            493,
            "FFFFDE59",
            "",
            ""
        ],
        [
            494,
            "FFFFDE59",
            "",
            ""
        ],
        [
            495,
            "FFFFDE59",
            "",
            ""
        ],
        [
            496,
            "FFFFDE59",
            "",
            ""
        ],
        [
            497,
            "FFFFDE59",
            "",
            ""
        ],
        [
            498,
            "FFFFDE59",
            "",
            ""
        ],
        [
            499,
            "FFFFDE59",
            "",
            ""
        ],
        [
            500,
            "FFFFDE59",
            "",
            ""
        ],
        [
            501,
            "FFFFDE59",
            "",
            ""
        ],
        [
            502,
            "FFFFDE59",
            "",
            ""
        ],
        [
            503,
            "FFFFDE59",
            "",
            ""
        ],
        [
            504,
            "FFFFDE59",
            "",
            ""
        ],
        [
            505,
            "FFFFDE59",
            "",
            ""
        ],
        [
            506,
            "FFFFDE59",
            "",
            ""
        ],
        [
            507,
            "FFFFDE59",
            "",
            ""
        ],
        [
            508,
            "FFFFDE59",
            "",
            ""
        ],
        [
            509,
            "FFFFDE59",
            "",
            ""
        ],
        [
            510,
            "FFFFDE59",
            "",
            ""
        ],
        [
            511,
            "FFFFDE59",
            "",
            ""
        ],
        [
            512,
            "FFFFDE59",
            "",
            ""
        ],
        [
            513,
            "FFFFDE59",
            "",
            ""
        ],
        [
            514,
            "FFFFDE59",
            "",
            ""
        ],
        [
            515,
            "FFFFDE59",
            "",
            ""
        ],
        [
            516,
            "FFFFDE59",
            "",
            ""
        ],
        [
            517,
            "FFFFDE59",
            "",
            ""
        ],
        [
            518,
            "FFFFDE59",
            "",
            ""
        ],
        [
            519,
            "FFFFDE59",
            "",
            ""
        ],
        [
            520,
            "FFFFDE59",
            "",
            ""
        ],
        [
            521,
            "FFFFDE59",
            "",
            ""
        ],
        [
            522,
            "FFFFDE59",
            "",
            ""
        ],
        [
            523,
            "FFFFDE59",
            "",
            ""
        ],
        [
            524,
            "FFFFDE59",
            "",
            ""
        ],
        [
            525,
            "FFFFDE59",
            "",
            ""
        ],
        [
            526,
            "FFFFDE59",
            "",
            ""
        ],
        [
            527,
            "FFFFDE59",
            "",
            ""
        ],
        [
            528,
            "FFFFDE59",
            "",
            ""
        ],
        [
            529,
            "FFFFDE59",
            "",
            ""
        ],
        [
            530,
            "FFFFDE59",
            "",
            ""
        ],
        [
            531,
            "FFFFDE59",
            "",
            ""
        ],
        [
            532,
            "FFFFDE59",
            "",
            ""
        ],
        [
            533,
            "FFFFDE59",
            "",
            ""
        ],
        [
            534,
            "FFFFDE59",
            "",
            ""
        ],
        [
            535,
            "FFFFDE59",
            "",
            ""
        ],
        [
            536,
            "FFFFDE59",
            "",
            ""
        ],
        [
            537,
            "FFFFDE59",
            "",
            ""
        ],
        [
            538,
            "FFFFDE59",
            "",
            ""
        ],
        [
            539,
            "FFFFDE59",
            "",
            ""
        ],
        [
            540,
            "FFFFDE59",
            "",
            ""
        ],
        [
            541,
            "FFFFDE59",
            "",
            ""
        ],
        [
            542,
            "FFFFDE59",
            "",
            ""
        ],
        [
            543,
            "FFFFDE59",
            "",
            ""
        ],
        [
            544,
            "FFFFDE59",
            "",
            ""
        ],
        [
            545,
            "FFFFDE59",
            "",
            ""
        ],
        [
            546,
            "FFFFDE59",
            "",
            ""
        ],
        [
            547,
            "FFFFDE59",
            "",
            ""
        ],
        [
            548,
            "FFFFDE59",
            "",
            ""
        ],
        [
            549,
            "FFFFDE59",
            "",
            ""
        ],
        [
            550,
            "FFFFDE59",
            "",
            ""
        ],
        [
            551,
            "FFFFDE59",
            "",
            ""
        ],
        [
            552,
            "FFFFDE59",
            "",
            ""
        ],
        [
            553,
            "FFFFDE59",
            "",
            ""
        ],
        [
            554,
            "FFFFDE59",
            "",
            ""
        ],
        [
            555,
            "FFFFDE59",
            "",
            ""
        ],
        [
            556,
            "FFFFDE59",
            "",
            ""
        ],
        [
            557,
            "FFFFDE59",
            "",
            ""
        ],
        [
            558,
            "FFFFDE59",
            "",
            ""
        ],
        [
            559,
            "FFFFDE59",
            "",
            ""
        ],
        [
            560,
            "FFFFDE59",
            "",
            ""
        ],
        [
            561,
            "FFFFDE59",
            "",
            ""
        ],
        [
            562,
            "FFFFDE59",
            "",
            ""
        ],
        [
            563,
            "FFFFDE59",
            "",
            ""
        ],
        [
            564,
            "FFFFDE59",
            "",
            ""
        ],
        [
            565,
            "FFFFDE59",
            "",
            ""
        ],
        [
            566,
            "FFFFDE59",
            "",
            ""
        ],
        [
            567,
            "FFFFDE59",
            "",
            ""
        ],
        [
            568,
            "FFFFDE59",
            "",
            ""
        ],
        [
            569,
            "FFFFDE59",
            "",
            ""
        ],
        [
            570,
            "FFFFDE59",
            "",
            ""
        ],
        [
            571,
            "FFFFDE59",
            "",
            ""
        ],
        [
            572,
            "FFFFDE59",
            "",
            ""
        ],
        [
            573,
            "FFFFDE59",
            "",
            ""
        ],
        [
            574,
            "FFFFDE59",
            "",
            ""
        ],
        [
            575,
            "FFFFDE59",
            "",
            ""
        ],
        [
            576,
            "FFFFDE59",
            "",
            ""
        ],
        [
            577,
            "FFFFDE59",
            "",
            ""
        ],
        [
            578,
            "FFFFDE59",
            "",
            ""
        ],
        [
            579,
            "FFFFDE59",
            "",
            ""
        ],
        [
            580,
            "FFFFDE59",
            "",
            ""
        ],
        [
            581,
            "FFFFDE59",
            "",
            ""
        ],
        [
            582,
            "FFFFDE59",
            "",
            ""
        ],
        [
            583,
            "FFFFDE59",
            "",
            ""
        ],
        [
            584,
            "FFFFDE59",
            "",
            ""
        ],
        [
            585,
            "FFFFDE59",
            "",
            ""
        ],
        [
            586,
            "FFFFDE59",
            "",
            ""
        ],
        [
            587,
            "FFFFDE59",
            "",
            ""
        ],
        [
            588,
            "FFFFDE59",
            "",
            ""
        ],
        [
            589,
            "FFFFDE59",
            "",
            ""
        ],
        [
            590,
            "FFFFDE59",
            "",
            ""
        ],
        [
            591,
            "FFFFDE59",
            "",
            ""
        ],
        [
            592,
            "FFFFDE59",
            "",
            ""
        ],
        [
            593,
            "FFFFDE59",
            "",
            ""
        ],
        [
            594,
            "FFFFDE59",
            "",
            ""
        ],
        [
            595,
            "FFFFDE59",
            "",
            ""
        ],
        [
            596,
            "FFFFDE59",
            "",
            ""
        ],
        [
            597,
            "FFFFDE59",
            "",
            ""
        ],
        [
            598,
            "FFFFDE59",
            "",
            ""
        ],
        [
            599,
            "FFFFDE59",
            "",
            ""
        ],
        [
            600,
            "FFFFDE59",
            "",
            ""
        ],
        [
            601,
            "FFFFDE59",
            "",
            ""
        ],
        [
            602,
            "FFFFDE59",
            "",
            ""
        ],
        [
            603,
            "FFFFDE59",
            "",
            ""
        ],
        [
            604,
            "FFFFDE59",
            "",
            ""
        ],
        [
            605,
            "FFFFDE59",
            "",
            ""
        ],
        [
            606,
            "FFFFDE59",
            "",
            ""
        ],
        [
            607,
            "FFFFDE59",
            "",
            ""
        ],
        [
            608,
            "FFFFDE59",
            "",
            ""
        ],
        [
            609,
            "FFFFDE59",
            "",
            ""
        ],
        [
            610,
            "FFFFDE59",
            "",
            ""
        ],
        [
            611,
            "FFFFDE59",
            "",
            ""
        ],
        [
            612,
            "FFFFDE59",
            "",
            ""
        ],
        [
            613,
            "FFFFDE59",
            "",
            ""
        ],
        [
            614,
            "FFFFDE59",
            "",
            ""
        ],
        [
            615,
            "FFFFDE59",
            "",
            ""
        ],
        [
            616,
            "FFFFDE59",
            "",
            ""
        ],
        [
            617,
            "FFFFDE59",
            "",
            ""
        ],
        [
            618,
            "FFFFDE59",
            "",
            ""
        ],
        [
            619,
            "FFFFDE59",
            "",
            ""
        ],
        [
            620,
            "FFFFDE59",
            "",
            ""
        ],
        [
            621,
            "FFFFDE59",
            "",
            ""
        ],
        [
            622,
            "FFFFDE59",
            "",
            ""
        ],
        [
            623,
            "FFFFDE59",
            "",
            ""
        ],
        [
            624,
            "FFFFDE59",
            "",
            ""
        ],
        [
            625,
            "FFFFDE59",
            "",
            ""
        ],
        [
            626,
            "FFFFDE59",
            "",
            ""
        ],
        [
            627,
            "FFFFDE59",
            "",
            ""
        ],
        [
            628,
            "FFFFDE59",
            "",
            ""
        ],
        [
            629,
            "FFFFDE59",
            "",
            ""
        ],
        [
            630,
            "FFFFDE59",
            "",
            ""
        ],
        [
            631,
            "FFFFDE59",
            "",
            ""
        ],
        [
            632,
            "FFFFDE59",
            "",
            ""
        ],
        [
            633,
            "FFFFDE59",
            "",
            ""
        ],
        [
            634,
            "FFFFDE59",
            "",
            ""
        ],
        [
            635,
            "FFFFDE59",
            "",
            ""
        ],
        [
            636,
            "FFFFDE59",
            "",
            ""
        ],
        [
            637,
            "FFFFDE59",
            "",
            ""
        ],
        [
            638,
            "FFFFDE59",
            "",
            ""
        ],
        [
            639,
            "FFFFDE59",
            "",
            ""
        ],
        [
            640,
            "FFFFDE59",
            "",
            ""
        ],
        [
            641,
            "FFFFDE59",
            "",
            ""
        ],
        [
            642,
            "FFFFDE59",
            "",
            ""
        ],
        [
            643,
            "FFFFDE59",
            "",
            ""
        ],
        [
            644,
            "FFFFDE59",
            "",
            ""
        ],
        [
            645,
            "FFFFDE59",
            "",
            ""
        ],
        [
            646,
            "FFFFDE59",
            "",
            ""
        ],
        [
            647,
            "FFFFDE59",
            "",
            ""
        ],
        [
            648,
            "FFFFDE59",
            "",
            ""
        ],
        [
            649,
            "FFFFDE59",
            "",
            ""
        ],
        [
            650,
            "FFFFDE59",
            "",
            ""
        ],
        [
            651,
            "FFFFDE59",
            "",
            ""
        ],
        [
            652,
            "FFFFDE59",
            "",
            ""
        ]
    ]
}