<?xml version="1.0" encoding="UTF-8" standalone="no"?>
<!-- Created with Inkscape (http://www.inkscape.org/) -->

<svg
   version="1.1"
   id="svg1"
   width="706.78003"
   height="472.96399"
   viewBox="0 0 706.78003 472.96399"
   preserveAspectRatio="none"
   xmlns="http://www.w3.org/2000/svg"
   xmlns:svg="http://www.w3.org/2000/svg">
  <defs
     id="defs1">
    <clipPath
       clipPathUnits="userSpaceOnUse"
       id="clipPath2">
      <path
         d="M 0,354.723 H 530.085 V 0 H 0 Z"
         transform="translate(-112.977,-171.988)"
         id="path2" />
    </clipPath>
    <clipPath
       clipPathUnits="userSpaceOnUse"
       id="clipPath4">
      <path
         d="M 0,354.723 H 530.085 V 0 H 0 Z"
         transform="translate(-402.78901,-248.23311)"
         id="path4" />
    </clipPath>
    <clipPath
       clipPathUnits="userSpaceOnUse"
       id="clipPath6">
      <path
         d="M 0,354.723 H 530.085 V 0 H 0 Z"
         transform="translate(-259.86721,-172.0065)"
         id="path6" />
    </clipPath>
    <clipPath
       clipPathUnits="userSpaceOnUse"
       id="clipPath8">
      <path
         d="M 0,354.723 H 530.085 V 0 H 0 Z"
         id="path8" />
    </clipPath>
    <clipPath
       clipPathUnits="userSpaceOnUse"
       id="clipPath10">
      <path
         d="M 0,354.723 H 530.085 V 0 H 0 Z"
         transform="translate(-402.79001,-191.8366)"
         id="path10" />
    </clipPath>
    <clipPath
       clipPathUnits="userSpaceOnUse"
       id="clipPath12">
      <path
         d="M 0,354.723 H 530.085 V 0 H 0 Z"
         transform="translate(-58.458502,-112.2087)"
         id="path12" />
    </clipPath>
    <clipPath
       clipPathUnits="userSpaceOnUse"
       id="clipPath14">
      <path
         d="M 0,354.723 H 530.085 V 0 H 0 Z"
         transform="translate(-117.28221,-135.0934)"
         id="path14" />
    </clipPath>
    <clipPath
       clipPathUnits="userSpaceOnUse"
       id="clipPath16">
      <path
         d="M 0,354.723 H 530.085 V 0 H 0 Z"
         id="path16" />
    </clipPath>
    <clipPath
       clipPathUnits="userSpaceOnUse"
       id="clipPath18">
      <path
         d="M 0,354.723 H 530.085 V 0 H 0 Z"
         transform="translate(-171.7246,-137.6833)"
         id="path18" />
    </clipPath>
    <clipPath
       clipPathUnits="userSpaceOnUse"
       id="clipPath20">
      <path
         d="M 0,354.723 H 530.085 V 0 H 0 Z"
         transform="translate(-184.5664,-130.4206)"
         id="path20" />
    </clipPath>
    <clipPath
       clipPathUnits="userSpaceOnUse"
       id="clipPath22">
      <path
         d="M 0,354.723 H 530.085 V 0 H 0 Z"
         transform="translate(-227.7949,-137.8434)"
         id="path22" />
    </clipPath>
    <clipPath
       clipPathUnits="userSpaceOnUse"
       id="clipPath24">
      <path
         d="M 0,354.723 H 530.085 V 0 H 0 Z"
         transform="translate(-237.00531,-109.3249)"
         id="path24" />
    </clipPath>
    <clipPath
       clipPathUnits="userSpaceOnUse"
       id="clipPath26">
      <path
         d="M 0,354.723 H 530.085 V 0 H 0 Z"
         id="path26" />
    </clipPath>
    <clipPath
       clipPathUnits="userSpaceOnUse"
       id="clipPath28">
      <path
         d="M 0,354.723 H 530.085 V 0 H 0 Z"
         transform="translate(-296.1484,-115.7868)"
         id="path28" />
    </clipPath>
    <clipPath
       clipPathUnits="userSpaceOnUse"
       id="clipPath30">
      <path
         d="M 0,354.723 H 530.085 V 0 H 0 Z"
         transform="translate(-317.66891,-140.8884)"
         id="path30" />
    </clipPath>
    <clipPath
       clipPathUnits="userSpaceOnUse"
       id="clipPath32">
      <path
         d="M 0,354.723 H 530.085 V 0 H 0 Z"
         transform="translate(-90.769,-74.368802)"
         id="path32" />
    </clipPath>
    <clipPath
       clipPathUnits="userSpaceOnUse"
       id="clipPath34">
      <path
         d="M 0,354.723 H 530.085 V 0 H 0 Z"
         transform="translate(-114.63771,-83.821)"
         id="path34" />
    </clipPath>
    <clipPath
       clipPathUnits="userSpaceOnUse"
       id="clipPath36">
      <path
         d="M 0,354.723 H 530.085 V 0 H 0 Z"
         transform="translate(-128.1748,-76.398099)"
         id="path36" />
    </clipPath>
    <clipPath
       clipPathUnits="userSpaceOnUse"
       id="clipPath38">
      <path
         d="M 0,354.723 H 530.085 V 0 H 0 Z"
         transform="translate(-178.3188,-81.071005)"
         id="path38" />
    </clipPath>
    <clipPath
       clipPathUnits="userSpaceOnUse"
       id="clipPath40">
      <path
         d="M 0,354.723 H 530.085 V 0 H 0 Z"
         transform="translate(-208.62301,-63.553404)"
         id="path40" />
    </clipPath>
    <clipPath
       clipPathUnits="userSpaceOnUse"
       id="clipPath42">
      <path
         d="M 0,354.723 H 530.085 V 0 H 0 Z"
         transform="translate(-246.0307,-63.633504)"
         id="path42" />
    </clipPath>
    <clipPath
       clipPathUnits="userSpaceOnUse"
       id="clipPath44">
      <path
         d="M 0,354.723 H 530.085 V 0 H 0 Z"
         id="path44" />
    </clipPath>
    <clipPath
       clipPathUnits="userSpaceOnUse"
       id="clipPath46">
      <path
         d="M 0,354.723 H 530.085 V 0 H 0 Z"
         transform="translate(-287.89651,-76.398099)"
         id="path46" />
    </clipPath>
    <clipPath
       clipPathUnits="userSpaceOnUse"
       id="clipPath48">
      <path
         d="M 0,354.723 H 530.085 V 0 H 0 Z"
         transform="translate(-336.67871,-68.974299)"
         id="path48" />
    </clipPath>
    <clipPath
       clipPathUnits="userSpaceOnUse"
       id="clipPath50">
      <path
         d="M 0,354.723 H 530.085 V 0 H 0 Z"
         id="path50" />
    </clipPath>
    <clipPath
       clipPathUnits="userSpaceOnUse"
       id="clipPath52">
      <path
         d="M 0,354.723 H 530.085 V 0 H 0 Z"
         transform="translate(-402.73631,-63.580704)"
         id="path52" />
    </clipPath>
    <clipPath
       clipPathUnits="userSpaceOnUse"
       id="clipPath54">
      <path
         d="M 0,354.723 H 530.085 V 0 H 0 Z"
         transform="translate(-428.18061,-76.398099)"
         id="path54" />
    </clipPath>
    <clipPath
       clipPathUnits="userSpaceOnUse"
       id="clipPath56">
      <path
         d="M 0,354.723 H 530.085 V 0 H 0 Z"
         transform="translate(-458.03021,-55.302399)"
         id="path56" />
    </clipPath>
  </defs>
  <g
     id="layer-MC0"
     transform="translate(3.4905091,2.3270061)">
    <path
       id="path1"
       d="m 0,0 c -32.508,0 -58.956,26.448 -58.956,58.956 v 69.757 h 26.24 V 58.956 C -32.716,40.916 -18.04,26.24 0,26.24 c 18.04,0 32.715,14.676 32.715,32.716 v 69.757 h 26.24 V 58.956 C 58.955,26.448 32.508,0 0,0"
       style="fill:#ffffff;fill-opacity:1;fill-rule:nonzero;stroke:none"
       transform="matrix(1.3333333,0,0,-1.3333333,150.636,243.64667)"
       clip-path="url(#clipPath2)" />
    <path
       id="path3"
       d="M 0,0 42.976,-74.437 H 73.274 L 0,52.479 -73.275,-74.437 h 30.298 z"
       style="fill:#ffffff;fill-opacity:1;fill-rule:nonzero;stroke:none"
       transform="matrix(1.3333333,0,0,-1.3333333,537.052,141.98653)"
       clip-path="url(#clipPath4)" />
    <path
       id="path5"
       d="m 0,0 c -12.285,0 -24.699,3.441 -35.729,10.646 -30.253,19.757 -38.791,60.443 -19.033,90.696 19.757,30.253 60.443,38.791 90.696,19.033 L 21.586,98.406 C 3.447,110.252 -20.947,105.133 -32.793,86.994 -44.64,68.855 -39.52,44.461 -21.381,32.615 -3.244,20.77 21.15,25.888 32.997,44.027 L 54.967,29.679 C 42.413,10.458 21.406,0 0,0"
       style="fill:#ffffff;fill-opacity:1;fill-rule:nonzero;stroke:none"
       transform="matrix(1.3333333,0,0,-1.3333333,346.4896,243.622)"
       clip-path="url(#clipPath6)" />
    <path
       id="path7"
       d="m 317.591,224.397 h -58.372 v 26.239 h 58.372 z"
       style="fill:#ffffff;fill-opacity:1;fill-rule:nonzero;stroke:none"
       transform="matrix(1.3333333,0,0,-1.3333333,0,472.964)"
       clip-path="url(#clipPath8)" />
    <path
       id="path9"
       d="M 0,0 -31.19,-54.021 H 31.187 Z"
       style="fill:#ffffff;fill-opacity:1;fill-rule:nonzero;stroke:none"
       transform="matrix(1.3333333,0,0,-1.3333333,537.05333,217.18187)"
       clip-path="url(#clipPath10)" />
    <path
       id="path11"
       d="M 0,0 C -2.919,2.777 -4.379,6.338 -4.379,10.682 V 34.02 H 3.738 V 11.056 c 0,-2.28 0.677,-4.113 2.03,-5.501 1.353,-1.389 3.115,-2.083 5.287,-2.083 2.172,0 3.943,0.694 5.314,2.083 1.371,1.388 2.056,3.221 2.056,5.501 V 34.02 h 8.064 V 10.682 C 26.489,6.338 25.03,2.777 22.11,0 19.19,-2.776 15.505,-4.165 11.055,-4.165 6.604,-4.165 2.919,-2.776 0,0"
       style="fill:#ffffff;fill-opacity:1;fill-rule:nonzero;stroke:none"
       transform="matrix(1.3333333,0,0,-1.3333333,77.944667,323.3524)"
       clip-path="url(#clipPath12)" />
    <path
       id="path13"
       d="M 0,0 C 1.905,-2.189 2.857,-5.118 2.857,-8.785 V -26.249 H -4.94 v 16.235 c 0,4.308 -1.673,6.462 -5.02,6.462 -1.318,0 -2.466,-0.302 -3.445,-0.907 -0.979,-0.605 -1.727,-1.478 -2.243,-2.617 -0.516,-1.14 -0.774,-2.475 -0.774,-4.006 V -26.249 H -24.22 V 2.59 h 5.341 l 1.549,-3.578 c 0.534,0.676 1.148,1.273 1.842,1.789 0.695,0.516 1.451,0.962 2.27,1.335 0.819,0.374 1.682,0.659 2.59,0.854 0.908,0.197 1.86,0.294 2.857,0.294 C -4.495,3.284 -1.905,2.189 0,0"
       style="fill:#ffffff;fill-opacity:1;fill-rule:nonzero;stroke:none"
       transform="matrix(1.3333333,0,0,-1.3333333,156.37627,292.83947)"
       clip-path="url(#clipPath14)" />
    <path
       id="path15"
       d="m 128.36,137.683 h 7.797 v -28.839 h -7.797 z m 0,11.109 h 7.797 v -7.263 h -7.797 z"
       style="fill:#ffffff;fill-opacity:1;fill-rule:nonzero;stroke:none"
       transform="matrix(1.3333333,0,0,-1.3333333,0,472.964)"
       clip-path="url(#clipPath16)" />
    <path
       id="path17"
       d="m 0,0 -11.482,-28.839 h -7.21 L -30.388,0 h 8.278 L -15.007,-19.333 -8.118,0 Z"
       style="fill:#ffffff;fill-opacity:1;fill-rule:nonzero;stroke:none"
       transform="matrix(1.3333333,0,0,-1.3333333,228.96613,289.38627)"
       clip-path="url(#clipPath18)" />
    <path
       id="path19"
       d="M 0,0 C -1.193,-0.962 -2.003,-2.297 -2.43,-4.006 H 11.509 C 11.153,-2.831 10.637,-1.843 9.96,-1.042 9.284,-0.24 8.474,0.374 7.53,0.801 6.586,1.229 5.545,1.441 4.406,1.441 2.661,1.441 1.192,0.961 0,0 m 19.146,-9.347 h -21.79 c 0.321,-1.958 1.095,-3.462 2.323,-4.512 1.229,-1.05 2.804,-1.576 4.727,-1.576 1.317,0 2.51,0.294 3.578,0.881 1.068,0.588 1.905,1.398 2.51,2.431 h 8.225 c -1.069,-3.134 -2.885,-5.626 -5.448,-7.478 -2.563,-1.85 -5.519,-2.776 -8.865,-2.776 -4.273,0 -7.833,1.459 -10.681,4.379 -2.849,2.92 -4.273,6.533 -4.273,10.842 0,1.709 0.24,3.346 0.721,4.913 0.481,1.566 1.175,2.972 2.083,4.219 0.908,1.246 1.967,2.323 3.178,3.231 1.21,0.907 2.581,1.611 4.112,2.109 1.531,0.498 3.151,0.748 4.86,0.748 2.884,0 5.474,-0.676 7.77,-2.03 2.297,-1.352 4.059,-3.186 5.287,-5.5 1.229,-2.314 1.843,-4.843 1.843,-7.584 0,-0.748 -0.054,-1.513 -0.16,-2.297"
       style="fill:#ffffff;fill-opacity:1;fill-rule:nonzero;stroke:none"
       transform="matrix(1.3333333,0,0,-1.3333333,246.08853,299.06987)"
       clip-path="url(#clipPath20)" />
    <path
       id="path21"
       d="m 0,0 v -7.37 h -3.365 c -2.207,0 -3.782,-0.516 -4.726,-1.548 -0.944,-1.033 -1.415,-2.725 -1.415,-5.074 v -15.007 h -7.798 V -0.16 h 5.021 l 1.388,-3.525 C -8.937,-1.229 -6.16,0 -2.563,0 Z"
       style="fill:#ffffff;fill-opacity:1;fill-rule:nonzero;stroke:none"
       transform="matrix(1.3333333,0,0,-1.3333333,303.72653,289.1728)"
       clip-path="url(#clipPath22)" />
    <path
       id="path23"
       d="M 0,0 C -1.833,0.854 -3.258,2.065 -4.272,3.632 -5.287,5.198 -5.794,6.996 -5.794,9.025 H 1.789 C 1.825,8.171 2.047,7.45 2.457,6.863 2.866,6.275 3.427,5.848 4.139,5.581 c 0.712,-0.267 1.531,-0.4 2.457,-0.4 0.747,0 1.424,0.106 2.029,0.32 0.605,0.214 1.104,0.543 1.496,0.988 0.391,0.445 0.587,0.97 0.587,1.575 0,0.89 -0.463,1.549 -1.389,1.976 -0.925,0.428 -2.314,0.802 -4.165,1.122 -1.175,0.178 -2.145,0.356 -2.911,0.534 -0.765,0.178 -1.673,0.49 -2.723,0.935 -1.051,0.445 -1.888,0.952 -2.511,1.521 -0.623,0.571 -1.166,1.354 -1.629,2.351 -0.463,0.996 -0.694,2.153 -0.694,3.471 0,2.706 1.068,4.914 3.205,6.623 2.136,1.709 4.94,2.563 8.411,2.563 3.471,0 6.266,-0.882 8.385,-2.643 2.118,-1.763 3.177,-4.086 3.177,-6.97 h -7.423 c 0,2.278 -1.442,3.418 -4.326,3.418 -1.21,0 -2.154,-0.249 -2.83,-0.748 -0.677,-0.498 -1.015,-1.175 -1.015,-2.03 0,-0.356 0.098,-0.685 0.293,-0.988 0.196,-0.303 0.428,-0.543 0.695,-0.72 0.267,-0.178 0.685,-0.347 1.255,-0.507 0.57,-0.161 1.05,-0.277 1.442,-0.348 l 1.762,-0.32 c 0.677,-0.143 1.158,-0.241 1.442,-0.294 0.285,-0.054 0.766,-0.152 1.442,-0.294 0.677,-0.142 1.184,-0.276 1.522,-0.401 0.338,-0.124 0.801,-0.294 1.389,-0.506 0.587,-0.214 1.032,-0.437 1.335,-0.668 0.302,-0.232 0.676,-0.507 1.121,-0.828 0.446,-0.321 0.793,-0.676 1.042,-1.068 0.249,-0.391 0.498,-0.819 0.747,-1.282 0.25,-0.463 0.419,-0.997 0.508,-1.602 0.089,-0.605 0.133,-1.246 0.133,-1.923 0,-2.955 -1.103,-5.314 -3.311,-7.076 C 12.88,-0.4 9.96,-1.281 6.329,-1.281 3.943,-1.281 1.834,-0.854 0,0"
       style="fill:#ffffff;fill-opacity:1;fill-rule:nonzero;stroke:none"
       transform="matrix(1.3333333,0,0,-1.3333333,316.00707,327.19747)"
       clip-path="url(#clipPath24)" />
    <path
       id="path25"
       d="m 262.184,137.683 h 7.797 v -28.839 h -7.797 z m 0,11.109 h 7.797 v -7.263 h -7.797 z"
       style="fill:#ffffff;fill-opacity:1;fill-rule:nonzero;stroke:none"
       transform="matrix(1.3333333,0,0,-1.3333333,0,472.964)"
       clip-path="url(#clipPath26)" />
    <path
       id="path27"
       d="m 0,0 v -6.942 h -5.501 c -2.101,0 -3.925,0.409 -5.474,1.228 -1.548,0.818 -2.732,2.003 -3.551,3.552 -0.82,1.548 -1.229,3.391 -1.229,5.527 v 12.283 h -5.233 v 1.656 L -9.56,29.427 h 1.442 V 21.896 H -0.16 V 15.648 H -7.957 V 4.38 c 0,-1.389 0.382,-2.466 1.147,-3.232 C -6.044,0.383 -4.949,0 -3.524,0 Z"
       style="fill:#ffffff;fill-opacity:1;fill-rule:nonzero;stroke:none"
       transform="matrix(1.3333333,0,0,-1.3333333,394.86453,318.5816)"
       clip-path="url(#clipPath28)" />
    <path
       id="path29"
       d="m 0,0 h -5.875 l 2.885,8.117 h 8.331 z m -6.702,-10.468 c -1.194,-0.962 -2.003,-2.297 -2.43,-4.006 H 4.807 c -0.357,1.175 -0.872,2.163 -1.549,2.964 -0.677,0.802 -1.487,1.416 -2.43,1.843 -0.943,0.428 -1.985,0.641 -3.124,0.641 -1.745,0 -3.214,-0.481 -4.406,-1.442 m 19.145,-9.346 H -9.346 c 0.321,-1.958 1.095,-3.462 2.324,-4.513 1.228,-1.05 2.803,-1.575 4.726,-1.575 1.317,0 2.51,0.294 3.578,0.881 1.068,0.587 1.905,1.397 2.51,2.43 h 8.225 c -1.069,-3.134 -2.884,-5.626 -5.448,-7.477 -2.563,-1.851 -5.518,-2.777 -8.865,-2.777 -4.272,0 -7.833,1.459 -10.682,4.379 -2.848,2.92 -4.272,6.533 -4.272,10.842 0,1.709 0.24,3.347 0.721,4.913 0.481,1.566 1.175,2.973 2.083,4.219 0.908,1.246 1.967,2.323 3.177,3.231 1.211,0.907 2.581,1.612 4.113,2.11 1.531,0.498 3.151,0.748 4.86,0.748 2.884,0 5.474,-0.677 7.771,-2.031 2.296,-1.352 4.058,-3.186 5.287,-5.5 1.227,-2.314 1.842,-4.842 1.842,-7.584 0,-0.748 -0.053,-1.512 -0.161,-2.296"
       style="fill:#ffffff;fill-opacity:1;fill-rule:nonzero;stroke:none"
       transform="matrix(1.3333333,0,0,-1.3333333,423.55853,285.1128)"
       clip-path="url(#clipPath30)" />
    <path
       id="path31"
       d="m 0,0 c -0.036,-5.91 -1.833,-10.779 -5.394,-14.606 -3.561,-3.829 -8.135,-5.742 -13.725,-5.742 -5.519,0 -10.121,1.842 -13.806,5.528 -3.685,3.684 -5.527,8.322 -5.527,13.912 0,5.625 1.816,10.289 5.447,13.992 3.632,3.703 8.207,5.555 13.726,5.555 4.664,0 8.74,-1.327 12.23,-3.98 3.488,-2.652 5.66,-6.079 6.515,-10.28 h -8.331 c -0.534,1.352 -1.3,2.518 -2.297,3.498 -0.997,0.979 -2.181,1.735 -3.551,2.269 -1.371,0.535 -2.84,0.802 -4.406,0.802 -3.311,0 -6,-1.104 -8.065,-3.311 -2.065,-2.207 -3.097,-5.056 -3.097,-8.545 0,-2.279 0.463,-4.309 1.388,-6.088 0.926,-1.78 2.235,-3.169 3.926,-4.166 1.691,-0.997 3.64,-1.495 5.848,-1.495 1.602,0 3.115,0.266 4.539,0.801 1.424,0.534 2.644,1.291 3.659,2.269 1.014,0.98 1.753,2.092 2.216,3.338 H -19.92 V 0 Z"
       style="fill:#ffffff;fill-opacity:1;fill-rule:nonzero;stroke:none"
       transform="matrix(1.3333333,0,0,-1.3333333,121.02533,373.8056)"
       clip-path="url(#clipPath32)" />
    <path
       id="path33"
       d="m 0,0 v -7.37 h -3.365 c -2.207,0 -3.782,-0.516 -4.726,-1.549 -0.944,-1.032 -1.415,-2.724 -1.415,-5.073 v -15.007 h -7.798 V -0.16 h 5.021 l 1.388,-3.525 C -8.937,-1.228 -6.16,0 -2.563,0 Z"
       style="fill:#ffffff;fill-opacity:1;fill-rule:nonzero;stroke:none"
       transform="matrix(1.3333333,0,0,-1.3333333,152.85027,361.20267)"
       clip-path="url(#clipPath34)" />
    <path
       id="path35"
       d="M 0,0 C -1.193,-0.962 -2.003,-2.297 -2.43,-4.006 H 11.509 C 11.153,-2.831 10.637,-1.843 9.96,-1.042 9.284,-0.24 8.474,0.374 7.53,0.801 6.586,1.229 5.545,1.441 4.406,1.441 2.661,1.441 1.192,0.961 0,0 m 19.146,-9.347 h -21.79 c 0.321,-1.958 1.095,-3.462 2.323,-4.512 1.229,-1.05 2.804,-1.576 4.727,-1.576 1.317,0 2.51,0.294 3.578,0.881 1.068,0.588 1.905,1.398 2.51,2.431 h 8.225 c -1.069,-3.134 -2.885,-5.626 -5.448,-7.478 -2.563,-1.85 -5.519,-2.776 -8.865,-2.776 -4.273,0 -7.833,1.459 -10.681,4.379 -2.849,2.92 -4.273,6.533 -4.273,10.842 0,1.709 0.24,3.346 0.721,4.913 0.481,1.566 1.175,2.972 2.083,4.219 0.908,1.246 1.967,2.323 3.178,3.231 1.21,0.907 2.581,1.611 4.112,2.109 1.531,0.498 3.151,0.748 4.86,0.748 2.884,0 5.474,-0.676 7.77,-2.03 2.297,-1.352 4.059,-3.186 5.287,-5.5 1.229,-2.314 1.843,-4.843 1.843,-7.584 0,-0.748 -0.054,-1.513 -0.16,-2.297"
       style="fill:#ffffff;fill-opacity:1;fill-rule:nonzero;stroke:none"
       transform="matrix(1.3333333,0,0,-1.3333333,170.89973,371.09987)"
       clip-path="url(#clipPath36)" />
    <path
       id="path37"
       d="M 0,0 C 1.905,-2.189 2.857,-5.118 2.857,-8.785 V -26.249 H -4.94 v 16.235 c 0,4.308 -1.673,6.462 -5.02,6.462 -1.318,0 -2.466,-0.302 -3.445,-0.908 -0.979,-0.604 -1.727,-1.477 -2.243,-2.616 -0.516,-1.14 -0.774,-2.475 -0.774,-4.006 V -26.249 H -24.22 V 2.59 h 5.341 l 1.549,-3.578 c 0.534,0.676 1.148,1.273 1.842,1.789 0.695,0.516 1.451,0.962 2.27,1.335 0.819,0.374 1.682,0.659 2.59,0.854 0.908,0.197 1.86,0.294 2.857,0.294 C -4.495,3.284 -1.905,2.189 0,0"
       style="fill:#ffffff;fill-opacity:1;fill-rule:nonzero;stroke:none"
       transform="matrix(1.3333333,0,0,-1.3333333,237.7584,364.86933)"
       clip-path="url(#clipPath38)" />
    <path
       id="path39"
       d="m 0,0 c 1.424,1.478 2.136,3.374 2.136,5.688 0,2.314 -0.712,4.21 -2.136,5.688 -1.424,1.478 -3.267,2.216 -5.527,2.216 -2.261,0 -4.104,-0.738 -5.528,-2.216 -1.424,-1.478 -2.136,-3.374 -2.136,-5.688 0,-1.139 0.187,-2.208 0.561,-3.205 0.374,-0.996 0.899,-1.833 1.575,-2.509 0.677,-0.677 1.487,-1.211 2.43,-1.603 0.943,-0.392 1.985,-0.587 3.125,-0.587 2.242,0 4.076,0.738 5.5,2.216 m -13.512,-7.557 c -2.385,1.318 -4.245,3.143 -5.58,5.475 -1.336,2.332 -2.003,4.922 -2.003,7.77 0,4.379 1.477,8.011 4.432,10.895 2.955,2.884 6.676,4.326 11.163,4.326 4.45,0 8.153,-1.442 11.108,-4.326 2.955,-2.884 4.433,-6.516 4.433,-10.895 0,-4.343 -1.487,-7.966 -4.46,-10.868 -2.973,-2.902 -6.667,-4.352 -11.081,-4.352 -2.956,0 -5.626,0.658 -8.012,1.975"
       style="fill:#ffffff;fill-opacity:1;fill-rule:nonzero;stroke:none"
       transform="matrix(1.3333333,0,0,-1.3333333,278.164,388.22613)"
       clip-path="url(#clipPath40)" />
    <path
       id="path41"
       d="m 0,0 c 1.478,1.496 2.216,3.365 2.216,5.608 0,1.496 -0.329,2.848 -0.987,4.059 -0.659,1.21 -1.594,2.154 -2.805,2.83 -1.21,0.677 -2.554,1.015 -4.031,1.015 -1.478,0 -2.822,-0.338 -4.033,-1.015 -1.21,-0.676 -2.154,-1.62 -2.83,-2.83 -0.676,-1.211 -1.015,-2.563 -1.015,-4.059 0,-2.243 0.748,-4.112 2.243,-5.608 1.495,-1.495 3.373,-2.242 5.635,-2.242 2.26,0 4.129,0.747 5.607,2.242 m 5.875,16.503 c 2.866,-2.884 4.299,-6.516 4.299,-10.895 0,-4.379 -1.433,-8.011 -4.299,-10.895 -2.866,-2.884 -6.489,-4.325 -10.869,-4.325 -3.453,0 -6.462,1.067 -9.025,3.204 l -0.908,-2.404 h -5.768 v 39.253 h 7.798 V 18.479 c 2.314,1.566 4.948,2.35 7.903,2.35 4.38,0 8.003,-1.442 10.869,-4.326"
       style="fill:#ffffff;fill-opacity:1;fill-rule:nonzero;stroke:none"
       transform="matrix(1.3333333,0,0,-1.3333333,328.04093,388.11933)"
       clip-path="url(#clipPath42)" />
    <path
       id="path43"
       d="m 262.877,94.075 h 7.797 V 54.822 h -7.797 z"
       style="fill:#ffffff;fill-opacity:1;fill-rule:nonzero;stroke:none"
       transform="matrix(1.3333333,0,0,-1.3333333,0,472.964)"
       clip-path="url(#clipPath44)" />
    <path
       id="path45"
       d="M 0,0 C -1.193,-0.962 -2.003,-2.297 -2.43,-4.006 H 11.509 C 11.152,-2.831 10.637,-1.843 9.96,-1.042 9.283,-0.24 8.474,0.374 7.53,0.801 6.587,1.229 5.545,1.441 4.406,1.441 2.661,1.441 1.192,0.961 0,0 m 19.146,-9.347 h -21.79 c 0.321,-1.958 1.095,-3.462 2.324,-4.512 1.228,-1.05 2.803,-1.576 4.726,-1.576 1.318,0 2.51,0.294 3.578,0.881 1.068,0.588 1.905,1.398 2.51,2.431 h 8.225 c -1.069,-3.134 -2.884,-5.626 -5.448,-7.478 -2.563,-1.85 -5.518,-2.776 -8.865,-2.776 -4.272,0 -7.833,1.459 -10.681,4.379 -2.849,2.92 -4.273,6.533 -4.273,10.842 0,1.709 0.24,3.346 0.721,4.913 0.481,1.566 1.175,2.972 2.083,4.219 0.908,1.246 1.967,2.323 3.178,3.231 1.211,0.907 2.581,1.611 4.112,2.109 1.531,0.498 3.151,0.748 4.86,0.748 2.884,0 5.474,-0.676 7.771,-2.03 2.296,-1.352 4.058,-3.186 5.287,-5.5 1.227,-2.314 1.842,-4.843 1.842,-7.584 0,-0.748 -0.053,-1.513 -0.16,-2.297"
       style="fill:#ffffff;fill-opacity:1;fill-rule:nonzero;stroke:none"
       transform="matrix(1.3333333,0,0,-1.3333333,383.862,371.09987)"
       clip-path="url(#clipPath46)" />
    <path
       id="path47"
       d="M 0,0 H 9.773 L 4.86,13.352 Z m 12.337,-7.05 h -14.9 l -2.564,-7.102 h -8.545 L 0.962,23.231 h 7.637 l 15.113,-37.383 h -8.758 z"
       style="fill:#ffffff;fill-opacity:1;fill-rule:nonzero;stroke:none"
       transform="matrix(1.3333333,0,0,-1.3333333,448.90493,380.99827)"
       clip-path="url(#clipPath48)" />
    <path
       id="path49"
       d="m 365.674,94.075 h 7.798 V 54.822 h -7.798 z"
       style="fill:#ffffff;fill-opacity:1;fill-rule:nonzero;stroke:none"
       transform="matrix(1.3333333,0,0,-1.3333333,0,472.964)"
       clip-path="url(#clipPath50)" />
    <path
       id="path51"
       d="m 0,0 c 1.495,1.495 2.243,3.382 2.243,5.661 0,1.495 -0.339,2.848 -1.014,4.059 -0.677,1.21 -1.612,2.154 -2.804,2.83 -1.194,0.677 -2.537,1.014 -4.032,1.014 -1.497,0 -2.849,-0.337 -4.06,-1.014 -1.21,-0.676 -2.145,-1.62 -2.804,-2.83 -0.658,-1.211 -0.987,-2.564 -0.987,-4.059 0,-2.279 0.738,-4.166 2.216,-5.661 1.477,-1.495 3.346,-2.243 5.607,-2.243 2.261,0 4.14,0.748 5.635,2.243 m 5.848,16.556 c 2.866,-2.884 4.299,-6.516 4.299,-10.895 0,-4.38 -1.442,-8.02 -4.326,-10.922 -2.883,-2.901 -6.48,-4.352 -10.788,-4.352 -2.955,0 -5.607,0.8 -7.958,2.403 v -11.963 h -7.797 V 20.08 h 5.181 l 1.335,-2.616 c 2.563,2.278 5.643,3.418 9.239,3.418 4.344,0 7.948,-1.443 10.815,-4.326"
       style="fill:#ffffff;fill-opacity:1;fill-rule:nonzero;stroke:none"
       transform="matrix(1.3333333,0,0,-1.3333333,536.98173,388.18973)"
       clip-path="url(#clipPath52)" />
    <path
       id="path53"
       d="M 0,0 C -1.193,-0.962 -2.003,-2.297 -2.43,-4.006 H 11.509 C 11.152,-2.831 10.637,-1.843 9.96,-1.042 9.283,-0.24 8.474,0.374 7.53,0.801 6.587,1.229 5.545,1.441 4.406,1.441 2.661,1.441 1.192,0.961 0,0 m 19.146,-9.347 h -21.79 c 0.321,-1.958 1.095,-3.462 2.324,-4.512 1.228,-1.05 2.803,-1.576 4.726,-1.576 1.318,0 2.51,0.294 3.578,0.881 1.068,0.588 1.905,1.398 2.51,2.431 h 8.225 c -1.069,-3.134 -2.884,-5.626 -5.448,-7.478 -2.563,-1.85 -5.518,-2.776 -8.865,-2.776 -4.272,0 -7.833,1.459 -10.681,4.379 -2.849,2.92 -4.273,6.533 -4.273,10.842 0,1.709 0.24,3.346 0.721,4.913 0.481,1.566 1.175,2.972 2.083,4.219 0.908,1.246 1.967,2.323 3.178,3.231 1.211,0.907 2.581,1.611 4.112,2.109 1.531,0.498 3.151,0.748 4.86,0.748 2.884,0 5.474,-0.676 7.771,-2.03 2.296,-1.352 4.058,-3.186 5.287,-5.5 1.227,-2.314 1.842,-4.843 1.842,-7.584 0,-0.748 -0.053,-1.513 -0.16,-2.297"
       style="fill:#ffffff;fill-opacity:1;fill-rule:nonzero;stroke:none"
       transform="matrix(1.3333333,0,0,-1.3333333,570.90747,371.09987)"
       clip-path="url(#clipPath54)" />
    <path
       id="path55"
       d="M 0,0 C -1.834,0.854 -3.258,2.065 -4.272,3.632 -5.287,5.198 -5.795,6.996 -5.795,9.025 H 1.789 C 1.824,8.171 2.047,7.45 2.456,6.863 2.866,6.275 3.427,5.848 4.139,5.581 c 0.712,-0.267 1.531,-0.4 2.457,-0.4 0.747,0 1.424,0.106 2.029,0.32 0.604,0.214 1.104,0.543 1.495,0.988 0.392,0.445 0.587,0.97 0.587,1.575 0,0.89 -0.462,1.549 -1.388,1.976 -0.925,0.428 -2.314,0.802 -4.166,1.122 -1.174,0.178 -2.145,0.356 -2.91,0.534 -0.765,0.178 -1.674,0.49 -2.724,0.935 -1.05,0.445 -1.887,0.952 -2.51,1.521 -0.623,0.571 -1.166,1.354 -1.629,2.351 -0.463,0.996 -0.694,2.153 -0.694,3.471 0,2.706 1.068,4.914 3.205,6.623 2.135,1.709 4.939,2.563 8.411,2.563 3.47,0 6.265,-0.882 8.385,-2.643 2.118,-1.763 3.177,-4.086 3.177,-6.97 H 10.44 c 0,2.278 -1.442,3.418 -4.326,3.418 -1.21,0 -2.153,-0.249 -2.83,-0.748 -0.677,-0.498 -1.014,-1.175 -1.014,-2.03 0,-0.356 0.097,-0.685 0.293,-0.988 0.196,-0.303 0.427,-0.543 0.695,-0.72 0.266,-0.178 0.684,-0.347 1.255,-0.507 0.569,-0.161 1.049,-0.277 1.441,-0.348 l 1.763,-0.32 c 0.677,-0.143 1.157,-0.241 1.442,-0.294 0.284,-0.054 0.765,-0.152 1.442,-0.294 0.676,-0.142 1.183,-0.276 1.522,-0.401 0.338,-0.124 0.801,-0.294 1.389,-0.506 0.587,-0.214 1.032,-0.437 1.335,-0.668 0.302,-0.232 0.675,-0.507 1.121,-0.828 0.445,-0.321 0.792,-0.676 1.042,-1.068 0.249,-0.391 0.498,-0.819 0.747,-1.282 0.249,-0.463 0.419,-0.997 0.508,-1.602 0.089,-0.605 0.133,-1.246 0.133,-1.923 0,-2.955 -1.104,-5.314 -3.311,-7.076 C 12.879,-0.4 9.96,-1.281 6.328,-1.281 3.942,-1.281 1.833,-0.854 0,0"
       style="fill:#ffffff;fill-opacity:1;fill-rule:nonzero;stroke:none"
       transform="matrix(1.3333333,0,0,-1.3333333,610.70693,399.22747)"
       clip-path="url(#clipPath56)" />
  </g>
</svg>
